EESchema Schematic File Version 2  date 03/06/2013 10:47:53
LIBS:abdullah
LIBS:power
LIBS:device
LIBS:transistors
LIBS:conn
LIBS:linear
LIBS:regul
LIBS:74xx
LIBS:cmos4000
LIBS:adc-dac
LIBS:memory
LIBS:xilinx
LIBS:special
LIBS:microcontrollers
LIBS:dsp
LIBS:microchip
LIBS:analog_switches
LIBS:motorola
LIBS:texas
LIBS:intel
LIBS:audio
LIBS:interface
LIBS:digital-audio
LIBS:philips
LIBS:display
LIBS:cypress
LIBS:siliconi
LIBS:opto
LIBS:atmel
LIBS:contrib
LIBS:valves
LIBS:PLC-cache
EELAYER 27 0
EELAYER END
$Descr A4 11693 8268
encoding utf-8
Sheet 2 2
Title ""
Date "3 jun 2013"
Rev ""
Comp ""
Comment1 ""
Comment2 ""
Comment3 ""
Comment4 ""
$EndDescr
$Comp
L PIC16F877A U?
U 1 1 51AC4C44
P 4250 3150
F 0 "U?" H 3500 4850 60  0000 C CNN
F 1 "PIC16F877A" H 3700 1550 60  0000 C CNN
F 2 "" H 3150 4650 60  0000 C CNN
F 3 "" H 3150 4650 60  0000 C CNN
	1    4250 3150
	1    0    0    -1  
$EndComp
$Comp
L OPTO-TRANSISTOR U?
U 1 1 51AC4C4A
P 8300 5000
F 0 "U?" H 8550 5300 60  0000 C CNN
F 1 "4N25" H 8500 4650 60  0000 C CNN
F 2 "~" H 8300 5000 60  0000 C CNN
F 3 "~" H 8300 5000 60  0000 C CNN
	1    8300 5000
	-1   0    0    -1  
$EndComp
$Comp
L OPTO-TRANSISTOR U?
U 1 1 51AC4C50
P 8300 5850
F 0 "U?" H 8550 6150 60  0000 C CNN
F 1 "4N25" H 8500 5500 60  0000 C CNN
F 2 "~" H 8300 5850 60  0000 C CNN
F 3 "~" H 8300 5850 60  0000 C CNN
	1    8300 5850
	-1   0    0    -1  
$EndComp
$Comp
L OPTO-TRANSISTOR U?
U 1 1 51AC4C56
P 8300 6700
F 0 "U?" H 8550 7000 60  0000 C CNN
F 1 "4N25" H 8500 6350 60  0000 C CNN
F 2 "~" H 8300 6700 60  0000 C CNN
F 3 "~" H 8300 6700 60  0000 C CNN
	1    8300 6700
	-1   0    0    -1  
$EndComp
$Comp
L R-HRZ R?
U 1 1 51AC4C5D
P 9150 4850
F 0 "R?" H 9160 4950 50  0000 C CNN
F 1 "1k" H 9155 4750 50  0000 C CNN
F 2 "~" H 9150 4850 60  0000 C CNN
F 3 "~" H 9150 4850 60  0000 C CNN
F 4 "W" H 9160 4850 40  0001 C CNN "Wattage"
	1    9150 4850
	1    0    0    -1  
$EndComp
$Comp
L R-HRZ R?
U 1 1 51AC4C64
P 9150 5700
F 0 "R?" H 9160 5800 50  0000 C CNN
F 1 "1k" H 9155 5600 50  0000 C CNN
F 2 "~" H 9150 5700 60  0000 C CNN
F 3 "~" H 9150 5700 60  0000 C CNN
F 4 "W" H 9160 5700 40  0001 C CNN "Wattage"
	1    9150 5700
	1    0    0    -1  
$EndComp
$Comp
L R-HRZ R?
U 1 1 51AC4C6B
P 9150 6550
F 0 "R?" H 9160 6650 50  0000 C CNN
F 1 "1k" H 9155 6450 50  0000 C CNN
F 2 "~" H 9150 6550 60  0000 C CNN
F 3 "~" H 9150 6550 60  0000 C CNN
F 4 "W" H 9160 6550 40  0001 C CNN "Wattage"
	1    9150 6550
	1    0    0    -1  
$EndComp
$Comp
L R-HRZ R?
U 1 1 51AC4C72
P 7400 4900
F 0 "R?" H 7410 5000 50  0000 C CNN
F 1 "10k" H 7405 4800 50  0000 C CNN
F 2 "~" H 7400 4900 60  0000 C CNN
F 3 "~" H 7400 4900 60  0000 C CNN
F 4 "W" H 7410 4900 40  0001 C CNN "Wattage"
	1    7400 4900
	1    0    0    -1  
$EndComp
$Comp
L R-HRZ R?
U 1 1 51AC4C79
P 7400 5750
F 0 "R?" H 7410 5850 50  0000 C CNN
F 1 "10k" H 7405 5650 50  0000 C CNN
F 2 "~" H 7400 5750 60  0000 C CNN
F 3 "~" H 7400 5750 60  0000 C CNN
F 4 "W" H 7410 5750 40  0001 C CNN "Wattage"
	1    7400 5750
	1    0    0    -1  
$EndComp
$Comp
L R-HRZ R?
U 1 1 51AC4C80
P 7400 6600
F 0 "R?" H 7410 6700 50  0000 C CNN
F 1 "10k" H 7405 6500 50  0000 C CNN
F 2 "~" H 7400 6600 60  0000 C CNN
F 3 "~" H 7400 6600 60  0000 C CNN
F 4 "W" H 7410 6600 40  0001 C CNN "Wattage"
	1    7400 6600
	1    0    0    -1  
$EndComp
$Comp
L GND #PWR?
U 1 1 51AC4C86
P 7650 5250
F 0 "#PWR?" H 7650 5250 30  0001 C CNN
F 1 "GND" H 7650 5180 30  0001 C CNN
F 2 "" H 7650 5250 60  0000 C CNN
F 3 "" H 7650 5250 60  0000 C CNN
	1    7650 5250
	1    0    0    -1  
$EndComp
$Comp
L GND #PWR?
U 1 1 51AC4C8C
P 7650 6100
F 0 "#PWR?" H 7650 6100 30  0001 C CNN
F 1 "GND" H 7650 6030 30  0001 C CNN
F 2 "" H 7650 6100 60  0000 C CNN
F 3 "" H 7650 6100 60  0000 C CNN
	1    7650 6100
	1    0    0    -1  
$EndComp
$Comp
L GND #PWR?
U 1 1 51AC4C92
P 7650 6950
F 0 "#PWR?" H 7650 6950 30  0001 C CNN
F 1 "GND" H 7650 6880 30  0001 C CNN
F 2 "" H 7650 6950 60  0000 C CNN
F 3 "" H 7650 6950 60  0000 C CNN
	1    7650 6950
	1    0    0    -1  
$EndComp
$Comp
L VCC #PWR?
U 1 1 51AC4C98
P 7000 4800
F 0 "#PWR?" H 7000 4900 50  0001 C CNN
F 1 "VCC" H 7000 4900 50  0000 C CNN
F 2 "" H 7000 4800 60  0000 C CNN
F 3 "" H 7000 4800 60  0000 C CNN
	1    7000 4800
	1    0    0    -1  
$EndComp
Text GLabel 7550 5100 0    60   Input ~ 0
OInput1
Text GLabel 7550 5950 0    60   Input ~ 0
OInput2
Text GLabel 7550 6800 0    60   Input ~ 0
OInput3
$Comp
L DIODESCH D?
U 1 1 51AC4CA1
P 8750 300
F 0 "D?" H 8750 200 40  0000 C CNN
F 1 "1N5819" H 8750 100 40  0000 C CNN
F 2 "~" H 8750 300 60  0000 C CNN
F 3 "~" H 8750 300 60  0000 C CNN
	1    8750 300 
	1    0    0    -1  
$EndComp
$Comp
L NPN-SIMPLE Q?
U 1 1 51AC4CA7
P 8050 750
F 0 "Q?" H 8150 800 50  0000 L CNN
F 1 "BC547" H 8150 700 50  0000 L CNN
F 2 "~" H 8050 750 60  0000 C CNN
F 3 "~" H 8050 750 60  0000 C CNN
	1    8050 750 
	1    0    0    -1  
$EndComp
$Comp
L LED D?
U 1 1 51AC4CAD
P 9000 -50
F 0 "D?" V 8950 -250 40  0000 C CNN
F 1 "Red LED" V 9050 -250 40  0000 C CNN
F 2 "~" H 9000 -50 60  0000 C CNN
F 3 "~" H 9000 -50 60  0000 C CNN
	1    9000 -50 
	0    1    1    0   
$EndComp
$Comp
L NPN-SIMPLE Q?
U 1 1 51AC4CB3
P 8050 2000
F 0 "Q?" H 8150 2050 50  0000 L CNN
F 1 "BC547" H 8150 1950 50  0000 L CNN
F 2 "~" H 8050 2000 60  0000 C CNN
F 3 "~" H 8050 2000 60  0000 C CNN
	1    8050 2000
	1    0    0    -1  
$EndComp
$Comp
L NPN-SIMPLE Q?
U 1 1 51AC4CB9
P 8050 3300
F 0 "Q?" H 8150 3350 50  0000 L CNN
F 1 "BC547" H 8150 3250 50  0000 L CNN
F 2 "~" H 8050 3300 60  0000 C CNN
F 3 "~" H 8050 3300 60  0000 C CNN
	1    8050 3300
	1    0    0    -1  
$EndComp
$Comp
L GND #PWR?
U 1 1 51AC4CBF
P 8150 1350
F 0 "#PWR?" H 8150 1350 30  0001 C CNN
F 1 "GND" H 8150 1280 30  0001 C CNN
F 2 "" H 8150 1350 60  0000 C CNN
F 3 "" H 8150 1350 60  0000 C CNN
	1    8150 1350
	1    0    0    -1  
$EndComp
$Comp
L GND #PWR?
U 1 1 51AC4CC5
P 8150 2600
F 0 "#PWR?" H 8150 2600 30  0001 C CNN
F 1 "GND" H 8150 2530 30  0001 C CNN
F 2 "" H 8150 2600 60  0000 C CNN
F 3 "" H 8150 2600 60  0000 C CNN
	1    8150 2600
	1    0    0    -1  
$EndComp
$Comp
L GND #PWR?
U 1 1 51AC4CCB
P 8150 3900
F 0 "#PWR?" H 8150 3900 30  0001 C CNN
F 1 "GND" H 8150 3830 30  0001 C CNN
F 2 "" H 8150 3900 60  0000 C CNN
F 3 "" H 8150 3900 60  0000 C CNN
	1    8150 3900
	1    0    0    -1  
$EndComp
$Comp
L R-HRZ R?
U 1 1 51AC4CD2
P 7550 750
F 0 "R?" H 7560 850 50  0000 C CNN
F 1 "2k7" H 7555 650 50  0000 C CNN
F 2 "~" H 7550 750 60  0000 C CNN
F 3 "~" H 7550 750 60  0000 C CNN
F 4 "W" H 7560 750 40  0001 C CNN "Wattage"
	1    7550 750 
	1    0    0    -1  
$EndComp
$Comp
L R-HRZ R?
U 1 1 51AC4CD9
P 7550 2000
F 0 "R?" H 7560 2100 50  0000 C CNN
F 1 "2k7" H 7555 1900 50  0000 C CNN
F 2 "~" H 7550 2000 60  0000 C CNN
F 3 "~" H 7550 2000 60  0000 C CNN
F 4 "W" H 7560 2000 40  0001 C CNN "Wattage"
	1    7550 2000
	1    0    0    -1  
$EndComp
$Comp
L R-HRZ R?
U 1 1 51AC4CE0
P 7550 3300
F 0 "R?" H 7560 3400 50  0000 C CNN
F 1 "2k7" H 7555 3200 50  0000 C CNN
F 2 "~" H 7550 3300 60  0000 C CNN
F 3 "~" H 7550 3300 60  0000 C CNN
F 4 "W" H 7560 3300 40  0001 C CNN "Wattage"
	1    7550 3300
	1    0    0    -1  
$EndComp
$Comp
L CRYSTAL X?
U 1 1 51AC4CE6
P 1850 3600
F 0 "X?" H 1650 3650 60  0000 C CNN
F 1 "20MHz" H 1850 3450 60  0000 C CNN
F 2 "" H 1850 3600 60  0001 C CNN
F 3 "" H 1850 3600 60  0001 C CNN
	1    1850 3600
	1    0    0    -1  
$EndComp
$Comp
L C-VERT C?
U 1 1 51AC4CED
P 1500 4000
F 0 "C?" H 1650 4050 50  0000 L CNN
F 1 "22p" H 1650 3950 50  0000 L CNN
F 2 "" H 1500 4000 60  0001 C CNN
F 3 "" H 1500 4000 60  0001 C CNN
F 4 "V" H 1650 3850 40  0001 L CNN "Voltage"
	1    1500 4000
	-1   0    0    -1  
$EndComp
$Comp
L C-VERT C?
U 1 1 51AC4CF4
P 2250 4000
F 0 "C?" H 2400 4050 50  0000 L CNN
F 1 "22p" H 2400 3950 50  0000 L CNN
F 2 "" H 2250 4000 60  0001 C CNN
F 3 "" H 2250 4000 60  0001 C CNN
F 4 "V" H 2400 3850 40  0001 L CNN "Voltage"
	1    2250 4000
	-1   0    0    -1  
$EndComp
$Comp
L GND #PWR?
U 1 1 51AC4CFA
P 1500 4250
F 0 "#PWR?" H 1500 4250 30  0001 C CNN
F 1 "GND" H 1500 4180 30  0001 C CNN
F 2 "" H 1500 4250 60  0000 C CNN
F 3 "" H 1500 4250 60  0000 C CNN
	1    1500 4250
	1    0    0    -1  
$EndComp
$Comp
L GND #PWR?
U 1 1 51AC4D00
P 2250 4250
F 0 "#PWR?" H 2250 4250 30  0001 C CNN
F 1 "GND" H 2250 4180 30  0001 C CNN
F 2 "" H 2250 4250 60  0000 C CNN
F 3 "" H 2250 4250 60  0000 C CNN
	1    2250 4250
	1    0    0    -1  
$EndComp
$Comp
L C-HRZ C?
U 1 1 51AC4D07
P 3900 1100
F 0 "C?" H 3899 1275 50  0000 C CNN
F 1 "150n" H 3899 925 50  0000 C CNN
F 2 "" H 3900 1100 60  0001 C CNN
F 3 "" H 3900 1100 60  0001 C CNN
F 4 "V" H 3899 825 40  0001 C CNN "Voltage"
	1    3900 1100
	1    0    0    -1  
$EndComp
$Comp
L VCC #PWR?
U 1 1 51AC4D0D
P 3600 1000
F 0 "#PWR?" H 3600 1100 50  0001 C CNN
F 1 "VCC" H 3600 1100 50  0000 C CNN
F 2 "" H 3600 1000 60  0000 C CNN
F 3 "" H 3600 1000 60  0000 C CNN
	1    3600 1000
	1    0    0    -1  
$EndComp
$Comp
L GND #PWR?
U 1 1 51AC4D13
P 4150 1150
F 0 "#PWR?" H 4150 1150 30  0001 C CNN
F 1 "GND" H 4150 1080 30  0001 C CNN
F 2 "" H 4150 1150 60  0000 C CNN
F 3 "" H 4150 1150 60  0000 C CNN
	1    4150 1150
	1    0    0    -1  
$EndComp
$Comp
L C-HRZ C?
U 1 1 51AC4D1A
P 4700 1100
F 0 "C?" H 4699 1275 50  0000 C CNN
F 1 "150n" H 4699 925 50  0000 C CNN
F 2 "" H 4700 1100 60  0001 C CNN
F 3 "" H 4700 1100 60  0001 C CNN
F 4 "V" H 4699 825 40  0001 C CNN "Voltage"
	1    4700 1100
	1    0    0    -1  
$EndComp
$Comp
L VCC #PWR?
U 1 1 51AC4D20
P 4400 1000
F 0 "#PWR?" H 4400 1100 50  0001 C CNN
F 1 "VCC" H 4400 1100 50  0000 C CNN
F 2 "" H 4400 1000 60  0000 C CNN
F 3 "" H 4400 1000 60  0000 C CNN
	1    4400 1000
	1    0    0    -1  
$EndComp
$Comp
L GND #PWR?
U 1 1 51AC4D26
P 4950 1150
F 0 "#PWR?" H 4950 1150 30  0001 C CNN
F 1 "GND" H 4950 1080 30  0001 C CNN
F 2 "" H 4950 1150 60  0000 C CNN
F 3 "" H 4950 1150 60  0000 C CNN
	1    4950 1150
	1    0    0    -1  
$EndComp
$Comp
L GND #PWR?
U 1 1 51AC4D2C
P 1800 2500
F 0 "#PWR?" H 1800 2500 30  0001 C CNN
F 1 "GND" H 1800 2430 30  0001 C CNN
F 2 "" H 1800 2500 60  0001 C CNN
F 3 "" H 1800 2500 60  0001 C CNN
	1    1800 2500
	1    0    0    -1  
$EndComp
$Comp
L C-VERT C?
U 1 1 51AC4D33
P 1800 2150
F 0 "C?" H 1950 2200 50  0000 L CNN
F 1 "150n" H 1950 2100 50  0000 L CNN
F 2 "" H 1800 2150 60  0001 C CNN
F 3 "" H 1800 2150 60  0001 C CNN
F 4 "V" H 1950 2000 40  0001 L CNN "Voltage"
	1    1800 2150
	1    0    0    -1  
$EndComp
$Comp
L R-HRZ R?
U 1 1 51AC4D3A
P 2150 1650
F 0 "R?" H 2160 1750 50  0000 C CNN
F 1 "330" H 2155 1550 50  0000 C CNN
F 2 "" H 2150 1650 60  0001 C CNN
F 3 "" H 2150 1650 60  0001 C CNN
F 4 "W" H 2160 1650 40  0001 C CNN "Wattage"
	1    2150 1650
	1    0    0    -1  
$EndComp
$Comp
L R-VERT R?
U 1 1 51AC4D41
P 1800 1300
F 0 "R?" H 1880 1350 50  0000 L CNN
F 1 "10k" H 1880 1250 50  0000 L CNN
F 2 "" H 1800 1300 60  0001 C CNN
F 3 "" H 1800 1300 60  0001 C CNN
F 4 "W" H 1880 1150 40  0001 L CNN "Wattage"
	1    1800 1300
	-1   0    0    -1  
$EndComp
$Comp
L VCC #PWR?
U 1 1 51AC4D47
P 1800 1000
F 0 "#PWR?" H 1800 1100 30  0001 C CNN
F 1 "VCC" H 1800 1100 50  0000 C CNN
F 2 "" H 1800 1000 60  0000 C CNN
F 3 "" H 1800 1000 60  0000 C CNN
	1    1800 1000
	1    0    0    -1  
$EndComp
$Comp
L SW_PUSH SW?
U 1 1 51AC4D4D
P 1500 2100
F 0 "SW?" V 1500 2250 35  0000 C CNN
F 1 "SW_PUSH" H 1500 2020 50  0001 C CNN
F 2 "~" H 1500 2100 60  0000 C CNN
F 3 "~" H 1500 2100 60  0000 C CNN
	1    1500 2100
	0    -1   -1   0   
$EndComp
$Comp
L GND #PWR?
U 1 1 51AC4D53
P 1500 2500
F 0 "#PWR?" H 1500 2500 30  0001 C CNN
F 1 "GND" H 1500 2430 30  0001 C CNN
F 2 "" H 1500 2500 60  0001 C CNN
F 3 "" H 1500 2500 60  0001 C CNN
	1    1500 2500
	1    0    0    -1  
$EndComp
$Comp
L VCC #PWR?
U 1 1 51AC4D59
P 3000 3150
F 0 "#PWR?" H 3000 3250 50  0001 C CNN
F 1 "VCC" H 3000 3250 50  0000 C CNN
F 2 "" H 3000 3150 60  0000 C CNN
F 3 "" H 3000 3150 60  0000 C CNN
	1    3000 3150
	0    -1   -1   0   
$EndComp
$Comp
L GND #PWR?
U 1 1 51AC4D5F
P 2950 3300
F 0 "#PWR?" H 2950 3300 30  0001 C CNN
F 1 "GND" H 2950 3230 30  0001 C CNN
F 2 "" H 2950 3300 60  0001 C CNN
F 3 "" H 2950 3300 60  0001 C CNN
	1    2950 3300
	0    1    1    0   
$EndComp
$Comp
L VCC #PWR?
U 1 1 51AC4D65
P 5600 2850
F 0 "#PWR?" H 5600 2950 50  0001 C CNN
F 1 "VCC" H 5600 2950 50  0000 C CNN
F 2 "" H 5600 2850 60  0000 C CNN
F 3 "" H 5600 2850 60  0000 C CNN
	1    5600 2850
	0    1    -1   0   
$EndComp
$Comp
L GND #PWR?
U 1 1 51AC4D6B
P 5650 3000
F 0 "#PWR?" H 5650 3000 30  0001 C CNN
F 1 "GND" H 5650 2930 30  0001 C CNN
F 2 "" H 5650 3000 60  0001 C CNN
F 3 "" H 5650 3000 60  0001 C CNN
	1    5650 3000
	0    -1   1    0   
$EndComp
$Comp
L MAX202E U?
U 1 1 51AC4D71
P 2950 6450
F 0 "U?" H 2400 5650 60  0000 C CNN
F 1 "MAX232" H 2500 7200 60  0000 C CNN
F 2 "" H 2950 6450 60  0001 C CNN
F 3 "" H 2950 6450 60  0001 C CNN
	1    2950 6450
	1    0    0    -1  
$EndComp
$Comp
L GND #PWR?
U 1 1 51AC4D77
P 4100 6450
F 0 "#PWR?" H 4100 6450 30  0001 C CNN
F 1 "GND" H 4100 6380 30  0001 C CNN
F 2 "" H 4100 6450 60  0001 C CNN
F 3 "" H 4100 6450 60  0001 C CNN
	1    4100 6450
	1    0    0    -1  
$EndComp
$Comp
L GND #PWR?
U 1 1 51AC4D7D
P 2950 7500
F 0 "#PWR?" H 2950 7500 30  0001 C CNN
F 1 "GND" H 2950 7430 30  0001 C CNN
F 2 "" H 2950 7500 60  0001 C CNN
F 3 "" H 2950 7500 60  0001 C CNN
	1    2950 7500
	1    0    0    -1  
$EndComp
$Comp
L DB9 J?
U 1 1 51AC4D83
P 5600 6600
F 0 "J?" H 5600 7150 70  0000 C CNN
F 1 "DE9" H 5600 6050 70  0000 C CNN
F 2 "" H 5600 6600 60  0001 C CNN
F 3 "" H 5600 6600 60  0001 C CNN
	1    5600 6600
	1    0    0    -1  
$EndComp
$Comp
L GND #PWR?
U 1 1 51AC4D89
P 5050 6250
F 0 "#PWR?" H 5050 6250 30  0001 C CNN
F 1 "GND" H 5050 6180 30  0001 C CNN
F 2 "" H 5050 6250 60  0001 C CNN
F 3 "" H 5050 6250 60  0001 C CNN
	1    5050 6250
	1    0    0    -1  
$EndComp
$Comp
L VCC #PWR?
U 1 1 51AC4D8F
P 2950 5050
F 0 "#PWR?" H 2950 5150 30  0001 C CNN
F 1 "VCC" H 2950 5150 50  0000 C CNN
F 2 "" H 2950 5050 60  0000 C CNN
F 3 "" H 2950 5050 60  0000 C CNN
	1    2950 5050
	1    0    0    -1  
$EndComp
$Comp
L CP-VERT C?
U 1 1 51AC4D96
P 4100 6200
F 0 "C?" H 4250 6150 50  0000 L CNN
F 1 "1uF" H 4250 6250 50  0000 L CNN
F 2 "~" H 4100 6200 60  0000 C CNN
F 3 "~" H 4100 6200 60  0000 C CNN
F 4 "35V" H 4250 6050 40  0001 L CNN "Voltage"
	1    4100 6200
	1    0    0    1   
$EndComp
$Comp
L CP-VERT C?
U 1 1 51AC4D9D
P 1550 5850
F 0 "C?" V 1600 5950 50  0000 L CNN
F 1 "1uF" V 1600 5650 50  0000 L CNN
F 2 "~" H 1550 5850 60  0000 C CNN
F 3 "~" H 1550 5850 60  0000 C CNN
F 4 "35V" H 1700 5700 40  0001 L CNN "Voltage"
	1    1550 5850
	0    1    -1   0   
$EndComp
$Comp
L CP-VERT C?
U 1 1 51AC4DA4
P 1550 6250
F 0 "C?" V 1600 6350 50  0000 L CNN
F 1 "1uF" V 1600 6050 50  0000 L CNN
F 2 "~" H 1550 6250 60  0000 C CNN
F 3 "~" H 1550 6250 60  0000 C CNN
F 4 "35V" H 1700 6100 40  0001 L CNN "Voltage"
	1    1550 6250
	0    1    -1   0   
$EndComp
Text GLabel 5550 4200 2    60   Input ~ 0
Relay1
Text GLabel 7250 2000 0    60   Input ~ 0
Relay2
Text GLabel 7250 3300 0    60   Input ~ 0
Relay3
$Comp
L R-VERT R?
U 1 1 51AC4DAE
P 7850 1050
F 0 "R?" H 7930 1100 50  0000 L CNN
F 1 "10k" H 7930 1000 50  0000 L CNN
F 2 "~" H 7850 1050 60  0000 C CNN
F 3 "~" H 7850 1050 60  0000 C CNN
F 4 "W" H 7930 900 40  0001 L CNN "Wattage"
	1    7850 1050
	-1   0    0    -1  
$EndComp
$Comp
L GND #PWR?
U 1 1 51AC4DB4
P 7850 1350
F 0 "#PWR?" H 7850 1350 30  0001 C CNN
F 1 "GND" H 7850 1280 30  0001 C CNN
F 2 "" H 7850 1350 60  0000 C CNN
F 3 "" H 7850 1350 60  0000 C CNN
	1    7850 1350
	1    0    0    -1  
$EndComp
$Comp
L R-VERT R?
U 1 1 51AC4DBB
P 7850 2300
F 0 "R?" H 7930 2350 50  0000 L CNN
F 1 "10k" H 7930 2250 50  0000 L CNN
F 2 "~" H 7850 2300 60  0000 C CNN
F 3 "~" H 7850 2300 60  0000 C CNN
F 4 "W" H 7930 2150 40  0001 L CNN "Wattage"
	1    7850 2300
	-1   0    0    -1  
$EndComp
$Comp
L R-VERT R?
U 1 1 51AC4DC2
P 7850 3600
F 0 "R?" H 7930 3650 50  0000 L CNN
F 1 "10k" H 7930 3550 50  0000 L CNN
F 2 "~" H 7850 3600 60  0000 C CNN
F 3 "~" H 7850 3600 60  0000 C CNN
F 4 "W" H 7930 3450 40  0001 L CNN "Wattage"
	1    7850 3600
	-1   0    0    -1  
$EndComp
$Comp
L GND #PWR?
U 1 1 51AC4DC8
P 7850 2600
F 0 "#PWR?" H 7850 2600 30  0001 C CNN
F 1 "GND" H 7850 2530 30  0001 C CNN
F 2 "" H 7850 2600 60  0000 C CNN
F 3 "" H 7850 2600 60  0000 C CNN
	1    7850 2600
	1    0    0    -1  
$EndComp
$Comp
L GND #PWR?
U 1 1 51AC4DCE
P 7850 3900
F 0 "#PWR?" H 7850 3900 30  0001 C CNN
F 1 "GND" H 7850 3830 30  0001 C CNN
F 2 "" H 7850 3900 60  0000 C CNN
F 3 "" H 7850 3900 60  0000 C CNN
	1    7850 3900
	1    0    0    -1  
$EndComp
$Comp
L CP-VERT C?
U 1 1 51AC4DD5
P 4550 6200
F 0 "C?" H 4700 6250 50  0000 L CNN
F 1 "1uF" H 4700 6150 50  0000 L CNN
F 2 "~" H 4550 6200 60  0000 C CNN
F 3 "~" H 4550 6200 60  0000 C CNN
F 4 "25V" H 4700 6050 40  0001 L CNN "Voltage"
	1    4550 6200
	1    0    0    -1  
$EndComp
$Comp
L GND #PWR?
U 1 1 51AC4DDB
P 4550 6450
F 0 "#PWR?" H 4550 6450 30  0001 C CNN
F 1 "GND" H 4550 6380 30  0001 C CNN
F 2 "" H 4550 6450 60  0001 C CNN
F 3 "" H 4550 6450 60  0001 C CNN
	1    4550 6450
	1    0    0    -1  
$EndComp
$Comp
L C-HRZ C?
U 1 1 51AC4DE2
P 3250 5300
F 0 "C?" H 3249 5475 50  0000 C CNN
F 1 "150n" H 3249 5125 50  0000 C CNN
F 2 "" H 3250 5300 60  0001 C CNN
F 3 "" H 3250 5300 60  0001 C CNN
F 4 "V" H 3249 5025 40  0001 C CNN "Voltage"
	1    3250 5300
	1    0    0    -1  
$EndComp
$Comp
L GND #PWR?
U 1 1 51AC4DE8
P 3500 5350
F 0 "#PWR?" H 3500 5350 30  0001 C CNN
F 1 "GND" H 3500 5280 30  0001 C CNN
F 2 "" H 3500 5350 60  0000 C CNN
F 3 "" H 3500 5350 60  0000 C CNN
	1    3500 5350
	1    0    0    -1  
$EndComp
$Comp
L CONNECTOR-2-SMALL P?
U 1 1 51AC4DEE
P 10150 4950
F 0 "P?" H 10000 4900 60  0000 C CNN
F 1 "CONNECTOR-2-SMALL" H 9600 4950 40  0001 C CNN
F 2 "~" H 10150 4950 60  0000 C CNN
F 3 "~" H 10150 4950 60  0000 C CNN
	1    10150 4950
	-1   0    0    1   
$EndComp
$Comp
L CONNECTOR-2-SMALL P?
U 1 1 51AC4DF4
P 10150 5250
F 0 "P?" H 10000 5200 60  0000 C CNN
F 1 "Opto-Isolated Inputs" H 10150 5350 40  0000 C CNN
F 2 "~" H 10150 5250 60  0000 C CNN
F 3 "~" H 10150 5250 60  0000 C CNN
	1    10150 5250
	-1   0    0    1   
$EndComp
$Comp
L CONNECTOR-2-SMALL P?
U 1 1 51AC4DFA
P 10700 250
F 0 "P?" H 10550 200 60  0000 C CNN
F 1 "CONNECTOR-2-SMALL" H 10150 250 40  0001 C CNN
F 2 "~" H 10700 250 60  0000 C CNN
F 3 "~" H 10700 250 60  0000 C CNN
	1    10700 250 
	-1   0    0    1   
$EndComp
$Comp
L CONNECTOR-2-SMALL P?
U 1 1 51AC4E00
P 10700 2850
F 0 "P?" H 10550 2800 60  0000 C CNN
F 1 "Relay Outputs" H 10700 2950 40  0000 C CNN
F 2 "~" H 10700 2850 60  0000 C CNN
F 3 "~" H 10700 2850 60  0000 C CNN
	1    10700 2850
	-1   0    0    1   
$EndComp
$Comp
L CONNECTOR-2-SMALL P?
U 1 1 51AC4E06
P 10700 1550
F 0 "P?" H 10550 1500 60  0000 C CNN
F 1 "CONNECTOR-2-SMALL" H 10150 1550 40  0001 C CNN
F 2 "~" H 10700 1550 60  0000 C CNN
F 3 "~" H 10700 1550 60  0000 C CNN
	1    10700 1550
	-1   0    0    1   
$EndComp
$Comp
L RELAY_SPDT K?
U 1 1 51AC4E0C
P 9600 50
F 0 "K?" H 9400 700 70  0000 C CNN
F 1 "C93402" V 9450 250 70  0000 C CNN
F 2 "~" H 9650 0   60  0000 C CNN
F 3 "~" H 9650 0   60  0000 C CNN
	1    9600 50  
	1    0    0    -1  
$EndComp
$Comp
L +12V #PWR?
U 1 1 51AC4E12
P 9000 -450
F 0 "#PWR?" H 9000 -500 20  0001 C CNN
F 1 "+12V" H 9000 -350 30  0000 C CNN
F 2 "~" H 9000 -450 60  0000 C CNN
F 3 "~" H 9000 -450 60  0000 C CNN
	1    9000 -450
	1    0    0    -1  
$EndComp
$Comp
L DIODESCH D?
U 1 1 51AC4E18
P 8750 1600
F 0 "D?" H 8750 1500 40  0000 C CNN
F 1 "1N5819" H 8750 1400 40  0000 C CNN
F 2 "~" H 8750 1600 60  0000 C CNN
F 3 "~" H 8750 1600 60  0000 C CNN
	1    8750 1600
	1    0    0    -1  
$EndComp
$Comp
L LED D?
U 1 1 51AC4E1E
P 9000 1250
F 0 "D?" V 8950 1050 40  0000 C CNN
F 1 "Red LED" V 9050 1050 40  0000 C CNN
F 2 "~" H 9000 1250 60  0000 C CNN
F 3 "~" H 9000 1250 60  0000 C CNN
	1    9000 1250
	0    1    1    0   
$EndComp
$Comp
L RELAY_SPDT K?
U 1 1 51AC4E24
P 9600 1350
F 0 "K?" H 9400 2000 70  0000 C CNN
F 1 "C93402" V 9450 1550 70  0000 C CNN
F 2 "~" H 9650 1300 60  0000 C CNN
F 3 "~" H 9650 1300 60  0000 C CNN
	1    9600 1350
	1    0    0    -1  
$EndComp
$Comp
L +12V #PWR?
U 1 1 51AC4E2A
P 9000 850
F 0 "#PWR?" H 9000 800 20  0001 C CNN
F 1 "+12V" H 9000 950 30  0000 C CNN
F 2 "~" H 9000 850 60  0000 C CNN
F 3 "~" H 9000 850 60  0000 C CNN
	1    9000 850 
	1    0    0    -1  
$EndComp
$Comp
L DIODESCH D?
U 1 1 51AC4E30
P 8750 2900
F 0 "D?" H 8750 2800 40  0000 C CNN
F 1 "1N5819" H 8750 2700 40  0000 C CNN
F 2 "~" H 8750 2900 60  0000 C CNN
F 3 "~" H 8750 2900 60  0000 C CNN
	1    8750 2900
	1    0    0    -1  
$EndComp
$Comp
L LED D?
U 1 1 51AC4E36
P 9000 2550
F 0 "D?" V 8950 2350 40  0000 C CNN
F 1 "Red LED" V 9050 2350 40  0000 C CNN
F 2 "~" H 9000 2550 60  0000 C CNN
F 3 "~" H 9000 2550 60  0000 C CNN
	1    9000 2550
	0    1    1    0   
$EndComp
$Comp
L RELAY_SPDT K?
U 1 1 51AC4E3C
P 9600 2650
F 0 "K?" H 9400 3300 70  0000 C CNN
F 1 "C93402" V 9450 2850 70  0000 C CNN
F 2 "~" H 9650 2600 60  0000 C CNN
F 3 "~" H 9650 2600 60  0000 C CNN
	1    9600 2650
	1    0    0    -1  
$EndComp
$Comp
L +12V #PWR?
U 1 1 51AC4E42
P 9000 2150
F 0 "#PWR?" H 9000 2100 20  0001 C CNN
F 1 "+12V" H 9000 2250 30  0000 C CNN
F 2 "~" H 9000 2150 60  0000 C CNN
F 3 "~" H 9000 2150 60  0000 C CNN
	1    9000 2150
	1    0    0    -1  
$EndComp
Wire Wire Line
	7800 2000 7900 2000
Wire Wire Line
	7800 3300 7900 3300
Wire Wire Line
	7800 750  7900 750 
Wire Wire Line
	8150 2200 8150 2600
Wire Wire Line
	8150 3900 8150 3500
Wire Wire Line
	8150 1350 8150 950 
Wire Wire Line
	8150 1750 8150 1800
Wire Wire Line
	8150 1750 9150 1750
Wire Wire Line
	8150 450  9150 450 
Wire Wire Line
	8150 450  8150 550 
Wire Wire Line
	9500 4850 9500 6550
Wire Wire Line
	7000 4800 7000 6600
Connection ~ 7700 4900
Wire Wire Line
	7700 5100 7700 4900
Wire Wire Line
	7550 5100 7700 5100
Connection ~ 7700 5750
Wire Wire Line
	7700 5950 7700 5750
Wire Wire Line
	7550 5950 7700 5950
Connection ~ 7700 6600
Wire Wire Line
	7700 6800 7700 6600
Wire Wire Line
	7550 6800 7700 6800
Connection ~ 7000 5750
Wire Wire Line
	7000 6600 7150 6600
Connection ~ 7000 4900
Wire Wire Line
	7000 5750 7150 5750
Wire Wire Line
	7150 4900 7000 4900
Wire Wire Line
	7650 6050 7800 6050
Wire Wire Line
	7650 6100 7650 6050
Wire Wire Line
	7650 6900 7650 6950
Wire Wire Line
	7800 6900 7650 6900
Wire Wire Line
	7650 5200 7650 5250
Wire Wire Line
	7800 5200 7650 5200
Wire Wire Line
	7650 6600 7800 6600
Wire Wire Line
	7650 5750 7800 5750
Wire Wire Line
	7650 4900 7800 4900
Wire Wire Line
	9800 6850 8850 6850
Wire Wire Line
	9800 5250 9800 6850
Wire Wire Line
	9650 6000 8850 6000
Wire Wire Line
	9650 5150 9650 6000
Wire Wire Line
	9650 5150 9950 5150
Wire Wire Line
	9400 5150 8850 5150
Wire Wire Line
	9400 4950 9400 5150
Wire Wire Line
	8900 6550 8850 6550
Wire Wire Line
	8850 4850 8900 4850
Wire Wire Line
	8900 5700 8850 5700
Connection ~ 9500 5700
Wire Wire Line
	9500 6550 9400 6550
Connection ~ 9500 4850
Wire Wire Line
	9400 5700 9500 5700
Wire Wire Line
	9400 4850 9950 4850
Wire Wire Line
	2150 3600 3150 3600
Wire Wire Line
	3150 3450 1500 3450
Wire Wire Line
	1500 3450 1500 3800
Wire Wire Line
	1500 3600 1550 3600
Wire Wire Line
	2250 3800 2250 3600
Connection ~ 2250 3600
Connection ~ 1500 3600
Wire Wire Line
	1500 4250 1500 4200
Wire Wire Line
	2250 4250 2250 4200
Wire Wire Line
	3600 1000 3600 1100
Wire Wire Line
	3600 1100 3700 1100
Wire Wire Line
	4150 1150 4150 1100
Wire Wire Line
	4150 1100 4100 1100
Wire Wire Line
	4400 1000 4400 1100
Wire Wire Line
	4400 1100 4500 1100
Wire Wire Line
	4950 1150 4950 1100
Wire Wire Line
	4950 1100 4900 1100
Connection ~ 1800 1650
Wire Wire Line
	1800 1550 1800 1950
Wire Wire Line
	1500 1650 1900 1650
Wire Wire Line
	1800 2500 1800 2350
Wire Wire Line
	2400 1650 3150 1650
Wire Wire Line
	1500 1650 1500 1800
Wire Wire Line
	1500 2500 1500 2400
Wire Wire Line
	1800 1000 1800 1050
Wire Wire Line
	2950 3300 3150 3300
Wire Wire Line
	3150 3150 3000 3150
Wire Wire Line
	5650 3000 5400 3000
Wire Wire Line
	5400 2850 5600 2850
Wire Wire Line
	5050 6250 5050 6200
Wire Wire Line
	5050 6200 5150 6200
Wire Wire Line
	2950 7500 2950 7450
Wire Wire Line
	4100 6000 3900 6000
Wire Wire Line
	1750 6250 2000 6250
Wire Wire Line
	1750 5850 2000 5850
Wire Wire Line
	2950 5050 2950 5450
Wire Wire Line
	2000 6050 1250 6050
Wire Wire Line
	1250 6050 1250 5850
Wire Wire Line
	1250 5850 1350 5850
Wire Wire Line
	1350 6250 1250 6250
Wire Wire Line
	1250 6250 1250 6450
Wire Wire Line
	1250 6450 2000 6450
Wire Wire Line
	4100 6450 4100 6400
Wire Wire Line
	5150 6600 3900 6600
Wire Wire Line
	3900 6750 5050 6750
Wire Wire Line
	5050 6750 5050 6800
Wire Wire Line
	5050 6800 5150 6800
Wire Wire Line
	7250 3300 7300 3300
Wire Wire Line
	7250 2000 7300 2000
Wire Wire Line
	7850 1350 7850 1300
Wire Wire Line
	7850 800  7850 750 
Connection ~ 7850 750 
Wire Wire Line
	7850 3900 7850 3850
Wire Wire Line
	7850 2550 7850 2600
Wire Wire Line
	7850 3350 7850 3300
Connection ~ 7850 3300
Wire Wire Line
	7850 2050 7850 2000
Connection ~ 7850 2000
Wire Wire Line
	8150 3050 9150 3050
Wire Wire Line
	8150 3050 8150 3100
Wire Wire Line
	4550 6000 4550 5850
Wire Wire Line
	4550 5850 3900 5850
Wire Wire Line
	4550 6450 4550 6400
Wire Wire Line
	3500 5350 3500 5300
Wire Wire Line
	3500 5300 3450 5300
Wire Wire Line
	3050 5300 2950 5300
Connection ~ 2950 5300
Wire Wire Line
	9950 4950 9400 4950
Wire Wire Line
	9950 5250 9800 5250
Wire Wire Line
	10050 -200 10200 -200
Wire Wire Line
	10200 -200 10200 300 
Wire Wire Line
	10050 300  10350 300 
Wire Wire Line
	10050 150  10500 150 
Wire Wire Line
	10350 150  10350 -350
Wire Wire Line
	10350 -350 10050 -350
Wire Wire Line
	8950 300  9150 300 
Wire Wire Line
	9000 300  9000 150 
Wire Wire Line
	9000 -450 9000 -250
Wire Wire Line
	8500 450  8500 300 
Wire Wire Line
	8500 300  8550 300 
Connection ~ 9000 300 
Wire Wire Line
	10050 1100 10200 1100
Wire Wire Line
	10200 1100 10200 1600
Wire Wire Line
	10050 1600 10350 1600
Wire Wire Line
	10050 1450 10500 1450
Wire Wire Line
	10350 1450 10350 950 
Wire Wire Line
	10350 950  10050 950 
Wire Wire Line
	8950 1600 9150 1600
Wire Wire Line
	9000 1600 9000 1450
Wire Wire Line
	9000 850  9000 1050
Wire Wire Line
	8500 1750 8500 1600
Wire Wire Line
	8500 1600 8550 1600
Connection ~ 9000 1600
Wire Wire Line
	10050 2400 10200 2400
Wire Wire Line
	10200 2400 10200 2900
Wire Wire Line
	10050 2900 10350 2900
Wire Wire Line
	10050 2750 10500 2750
Wire Wire Line
	10350 2750 10350 2250
Wire Wire Line
	10350 2250 10050 2250
Wire Wire Line
	8950 2900 9150 2900
Wire Wire Line
	9000 2900 9000 2750
Wire Wire Line
	9000 2150 9000 2350
Wire Wire Line
	8500 3050 8500 2900
Wire Wire Line
	8500 2900 8550 2900
Connection ~ 9000 2900
Connection ~ 8500 450 
Connection ~ 8500 1750
Connection ~ 8500 3050
Connection ~ 10350 150 
Wire Wire Line
	10500 250  10350 250 
Wire Wire Line
	10350 250  10350 300 
Connection ~ 10200 300 
Connection ~ 10350 1450
Wire Wire Line
	10500 1550 10350 1550
Wire Wire Line
	10350 1550 10350 1600
Connection ~ 10200 1600
Connection ~ 10350 2750
Wire Wire Line
	10350 2900 10350 2850
Wire Wire Line
	10350 2850 10500 2850
Connection ~ 10200 2900
Wire Wire Line
	7200 750  7300 750 
Text GLabel 3100 1800 0    60   Input ~ 0
OInput1
Text GLabel 3100 1950 0    60   Input ~ 0
OInput2
Text GLabel 3100 2100 0    60   Input ~ 0
OInput3
Wire Wire Line
	3100 1950 3150 1950
Wire Wire Line
	3150 1800 3100 1800
Wire Wire Line
	3100 2100 3150 2100
Text GLabel 3050 2700 0    60   Input ~ 0
ADI1
Text GLabel 3050 2850 0    60   Input ~ 0
ADI2
Text GLabel 3050 3000 0    60   Input ~ 0
ADI3
Wire Wire Line
	3050 3000 3150 3000
Wire Wire Line
	3050 2850 3150 2850
Wire Wire Line
	3150 2700 3050 2700
Text GLabel 3050 4050 0    60   Input ~ 0
OCT1
Text GLabel 3050 3900 0    60   Input ~ 0
OCT2
Text GLabel 3050 3750 0    60   Input ~ 0
OCT3
Wire Wire Line
	3050 3750 3150 3750
Wire Wire Line
	3150 3900 3050 3900
Wire Wire Line
	3050 4050 3150 4050
Text GLabel 5550 4350 2    60   Input ~ 0
Relay2
Text GLabel 5550 4500 2    60   Input ~ 0
Relay3
Wire Wire Line
	5550 4500 5400 4500
Wire Wire Line
	5400 4350 5550 4350
Wire Wire Line
	5550 4200 5400 4200
Text GLabel 7200 750  0    60   Input ~ 0
Relay1
Text GLabel 5550 3750 2    60   Input ~ 0
Rx
Text GLabel 1900 6900 0    60   Input ~ 0
Rx
Text GLabel 5550 3900 2    60   Input ~ 0
Tx
Text GLabel 1900 6750 0    60   Input ~ 0
Tx
Wire Wire Line
	5550 3900 5400 3900
Wire Wire Line
	5400 3750 5550 3750
Wire Wire Line
	1900 6750 2000 6750
Wire Wire Line
	2000 6900 1900 6900
$EndSCHEMATC
