EESchema Schematic File Version 2  date 03/06/2013 10:47:53
LIBS:abdullah
LIBS:power
LIBS:device
LIBS:transistors
LIBS:conn
LIBS:linear
LIBS:regul
LIBS:74xx
LIBS:cmos4000
LIBS:adc-dac
LIBS:memory
LIBS:xilinx
LIBS:special
LIBS:microcontrollers
LIBS:dsp
LIBS:microchip
LIBS:analog_switches
LIBS:motorola
LIBS:texas
LIBS:intel
LIBS:audio
LIBS:interface
LIBS:digital-audio
LIBS:philips
LIBS:display
LIBS:cypress
LIBS:siliconi
LIBS:opto
LIBS:atmel
LIBS:contrib
LIBS:valves
LIBS:PLC-cache
EELAYER 27 0
EELAYER END
$Descr A4 11693 8268
encoding utf-8
Sheet 1 2
Title ""
Date "3 jun 2013"
Rev ""
Comp ""
Comment1 ""
Comment2 ""
Comment3 ""
Comment4 ""
$EndDescr
$Comp
L PIC16F877A U2
U 1 1 519E2142
P 4250 11200
F 0 "U2" H 3500 12900 60  0000 C CNN
F 1 "PIC16F877A" H 3700 9600 60  0000 C CNN
F 2 "" H 3150 12700 60  0000 C CNN
F 3 "" H 3150 12700 60  0000 C CNN
	1    4250 11200
	1    0    0    -1  
$EndComp
$Comp
L MC34063 U1
U 1 1 519E2151
P 4200 1700
F 0 "U1" H 3900 2000 50  0000 L CNN
F 1 "MC34063" H 3900 1250 50  0000 L CNN
F 2 "~" H 4200 1700 60  0000 C CNN
F 3 "~" H 4200 1700 60  0000 C CNN
	1    4200 1700
	1    0    0    -1  
$EndComp
$Comp
L C-VERT C6
U 1 1 519E2174
P 3550 2250
F 0 "C6" H 3700 2300 50  0000 L CNN
F 1 "1n" H 3700 2200 50  0000 L CNN
F 2 "~" H 3550 2250 60  0000 C CNN
F 3 "~" H 3550 2250 60  0000 C CNN
F 4 "V" H 3700 2100 40  0001 L CNN "Voltage"
	1    3550 2250
	-1   0    0    -1  
$EndComp
$Comp
L C-VERT C5
U 1 1 519E218C
P 3150 2250
F 0 "C5" H 3300 2300 50  0000 L CNN
F 1 "150n" H 3300 2200 50  0000 L CNN
F 2 "~" H 3150 2250 60  0000 C CNN
F 3 "~" H 3150 2250 60  0000 C CNN
F 4 "V" H 3300 2100 40  0001 L CNN "Voltage"
	1    3150 2250
	-1   0    0    -1  
$EndComp
$Comp
L CP-VERT C4
U 1 1 519E2194
P 2650 2250
F 0 "C4" H 2800 2300 50  0000 L CNN
F 1 "1000uF" H 2800 2200 50  0000 L CNN
F 2 "~" H 2650 2250 60  0000 C CNN
F 3 "~" H 2650 2250 60  0000 C CNN
F 4 "35V" H 2800 2100 40  0000 L CNN "Voltage"
	1    2650 2250
	-1   0    0    -1  
$EndComp
$Comp
L R-VERT R3
U 1 1 519E21DD
P 2650 1550
F 0 "R3" H 2730 1600 50  0000 L CNN
F 1 "0R5" H 2730 1500 50  0000 L CNN
F 2 "~" H 2650 1550 60  0000 C CNN
F 3 "~" H 2650 1550 60  0000 C CNN
F 4 "W" H 2730 1400 40  0001 L CNN "Wattage"
	1    2650 1550
	-1   0    0    -1  
$EndComp
$Comp
L DIODESCH D5
U 1 1 519E22B7
P 5250 2000
F 0 "D5" V 5300 1900 40  0000 R CNN
F 1 "1N5819" V 5200 1900 40  0000 R CNN
F 2 "~" H 5250 2000 60  0000 C CNN
F 3 "~" H 5250 2000 60  0000 C CNN
	1    5250 2000
	0    -1   -1   0   
$EndComp
$Comp
L INDUCTOR L1
U 1 1 519E22C6
P 5750 1700
F 0 "L1" V 5850 1700 40  0000 C CNN
F 1 "100uH" V 5700 1700 40  0000 C CNN
F 2 "~" H 5750 1700 60  0000 C CNN
F 3 "~" H 5750 1700 60  0000 C CNN
	1    5750 1700
	0    -1   -1   0   
$EndComp
$Comp
L CP-VERT C10
U 1 1 519E22D4
P 6850 2000
F 0 "C10" H 7000 2050 50  0000 L CNN
F 1 "470uF" H 7000 1950 50  0000 L CNN
F 2 "~" H 6850 2000 60  0000 C CNN
F 3 "~" H 6850 2000 60  0000 C CNN
F 4 "25V" H 7000 1850 40  0000 L CNN "Voltage"
	1    6850 2000
	1    0    0    -1  
$EndComp
$Comp
L R-HRZ R5
U 1 1 519E22DC
P 4350 2550
F 0 "R5" H 4360 2650 50  0000 C CNN
F 1 "10k" H 4355 2450 50  0000 C CNN
F 2 "~" H 4350 2550 60  0000 C CNN
F 3 "~" H 4350 2550 60  0000 C CNN
F 4 "W" H 4360 2550 40  0001 C CNN "Wattage"
	1    4350 2550
	1    0    0    -1  
$EndComp
$Comp
L R-HRZ R6
U 1 1 519E22F4
P 5350 2550
F 0 "R6" H 5360 2650 50  0000 C CNN
F 1 "30k" H 5355 2450 50  0000 C CNN
F 2 "~" H 5350 2550 60  0000 C CNN
F 3 "~" H 5350 2550 60  0000 C CNN
F 4 "W" H 5360 2550 40  0001 C CNN "Wattage"
	1    5350 2550
	1    0    0    -1  
$EndComp
$Comp
L C-VERT C9
U 1 1 519E23D4
P 6350 2000
F 0 "C9" H 6500 2050 50  0000 L CNN
F 1 "150n" H 6500 1950 50  0000 L CNN
F 2 "~" H 6350 2000 60  0000 C CNN
F 3 "~" H 6350 2000 60  0000 C CNN
F 4 "V" H 6500 1850 40  0001 L CNN "Voltage"
	1    6350 2000
	1    0    0    -1  
$EndComp
$Comp
L GND #PWR01
U 1 1 519E24E9
P 4750 2250
F 0 "#PWR01" H 4750 2250 30  0001 C CNN
F 1 "GND" H 4750 2180 30  0001 C CNN
F 2 "" H 4750 2250 60  0000 C CNN
F 3 "" H 4750 2250 60  0000 C CNN
	1    4750 2250
	1    0    0    -1  
$EndComp
$Comp
L GND #PWR02
U 1 1 519E251F
P 3550 2600
F 0 "#PWR02" H 3550 2600 30  0001 C CNN
F 1 "GND" H 3550 2530 30  0001 C CNN
F 2 "" H 3550 2600 60  0000 C CNN
F 3 "" H 3550 2600 60  0000 C CNN
	1    3550 2600
	1    0    0    -1  
$EndComp
$Comp
L GND #PWR03
U 1 1 519E2525
P 3150 2600
F 0 "#PWR03" H 3150 2600 30  0001 C CNN
F 1 "GND" H 3150 2530 30  0001 C CNN
F 2 "" H 3150 2600 60  0000 C CNN
F 3 "" H 3150 2600 60  0000 C CNN
	1    3150 2600
	1    0    0    -1  
$EndComp
$Comp
L GND #PWR04
U 1 1 519E252B
P 2650 2600
F 0 "#PWR04" H 2650 2600 30  0001 C CNN
F 1 "GND" H 2650 2530 30  0001 C CNN
F 2 "" H 2650 2600 60  0000 C CNN
F 3 "" H 2650 2600 60  0000 C CNN
	1    2650 2600
	1    0    0    -1  
$EndComp
$Comp
L GND #PWR05
U 1 1 519E2531
P 5250 2250
F 0 "#PWR05" H 5250 2250 30  0001 C CNN
F 1 "GND" H 5250 2180 30  0001 C CNN
F 2 "" H 5250 2250 60  0000 C CNN
F 3 "" H 5250 2250 60  0000 C CNN
	1    5250 2250
	1    0    0    -1  
$EndComp
$Comp
L GND #PWR06
U 1 1 519E2537
P 6350 2250
F 0 "#PWR06" H 6350 2250 30  0001 C CNN
F 1 "GND" H 6350 2180 30  0001 C CNN
F 2 "" H 6350 2250 60  0000 C CNN
F 3 "" H 6350 2250 60  0000 C CNN
	1    6350 2250
	1    0    0    -1  
$EndComp
$Comp
L GND #PWR07
U 1 1 519E253D
P 6850 2250
F 0 "#PWR07" H 6850 2250 30  0001 C CNN
F 1 "GND" H 6850 2180 30  0001 C CNN
F 2 "" H 6850 2250 60  0000 C CNN
F 3 "" H 6850 2250 60  0000 C CNN
	1    6850 2250
	1    0    0    -1  
$EndComp
$Comp
L GND #PWR08
U 1 1 519E25B1
P 4000 2600
F 0 "#PWR08" H 4000 2600 30  0001 C CNN
F 1 "GND" H 4000 2530 30  0001 C CNN
F 2 "" H 4000 2600 60  0000 C CNN
F 3 "" H 4000 2600 60  0000 C CNN
	1    4000 2600
	1    0    0    -1  
$EndComp
$Comp
L R-VERT R4
U 1 1 519E27DD
P 3000 1550
F 0 "R4" H 3080 1600 50  0000 L CNN
F 1 "0R5" H 3080 1500 50  0000 L CNN
F 2 "~" H 3000 1550 60  0000 C CNN
F 3 "~" H 3000 1550 60  0000 C CNN
F 4 "W" H 3080 1400 40  0001 L CNN "Wattage"
	1    3000 1550
	-1   0    0    -1  
$EndComp
$Comp
L OPTO-TRANSISTOR U4
U 1 1 519E29A5
P 8400 14550
F 0 "U4" H 8650 14850 60  0000 C CNN
F 1 "4N25" H 8600 14200 60  0000 C CNN
F 2 "~" H 8400 14550 60  0000 C CNN
F 3 "~" H 8400 14550 60  0000 C CNN
	1    8400 14550
	-1   0    0    -1  
$EndComp
$Comp
L OPTO-TRANSISTOR U5
U 1 1 519E3C70
P 8400 15400
F 0 "U5" H 8650 15700 60  0000 C CNN
F 1 "4N25" H 8600 15050 60  0000 C CNN
F 2 "~" H 8400 15400 60  0000 C CNN
F 3 "~" H 8400 15400 60  0000 C CNN
	1    8400 15400
	-1   0    0    -1  
$EndComp
$Comp
L OPTO-TRANSISTOR U6
U 1 1 519E3D2D
P 8400 16250
F 0 "U6" H 8650 16550 60  0000 C CNN
F 1 "4N25" H 8600 15900 60  0000 C CNN
F 2 "~" H 8400 16250 60  0000 C CNN
F 3 "~" H 8400 16250 60  0000 C CNN
	1    8400 16250
	-1   0    0    -1  
$EndComp
$Comp
L R-HRZ R25
U 1 1 519E3D62
P 9250 14400
F 0 "R25" H 9260 14500 50  0000 C CNN
F 1 "1k" H 9255 14300 50  0000 C CNN
F 2 "~" H 9250 14400 60  0000 C CNN
F 3 "~" H 9250 14400 60  0000 C CNN
F 4 "W" H 9260 14400 40  0001 C CNN "Wattage"
	1    9250 14400
	1    0    0    -1  
$EndComp
$Comp
L R-HRZ R26
U 1 1 519E3D69
P 9250 15250
F 0 "R26" H 9260 15350 50  0000 C CNN
F 1 "1k" H 9255 15150 50  0000 C CNN
F 2 "~" H 9250 15250 60  0000 C CNN
F 3 "~" H 9250 15250 60  0000 C CNN
F 4 "W" H 9260 15250 40  0001 C CNN "Wattage"
	1    9250 15250
	1    0    0    -1  
$EndComp
$Comp
L R-HRZ R27
U 1 1 519E3D70
P 9250 16100
F 0 "R27" H 9260 16200 50  0000 C CNN
F 1 "1k" H 9255 16000 50  0000 C CNN
F 2 "~" H 9250 16100 60  0000 C CNN
F 3 "~" H 9250 16100 60  0000 C CNN
F 4 "W" H 9260 16100 40  0001 C CNN "Wattage"
	1    9250 16100
	1    0    0    -1  
$EndComp
$Comp
L R-HRZ R16
U 1 1 519E431C
P 7500 14450
F 0 "R16" H 7510 14550 50  0000 C CNN
F 1 "10k" H 7505 14350 50  0000 C CNN
F 2 "~" H 7500 14450 60  0000 C CNN
F 3 "~" H 7500 14450 60  0000 C CNN
F 4 "W" H 7510 14450 40  0001 C CNN "Wattage"
	1    7500 14450
	1    0    0    -1  
$EndComp
$Comp
L R-HRZ R17
U 1 1 519E4329
P 7500 15300
F 0 "R17" H 7510 15400 50  0000 C CNN
F 1 "10k" H 7505 15200 50  0000 C CNN
F 2 "~" H 7500 15300 60  0000 C CNN
F 3 "~" H 7500 15300 60  0000 C CNN
F 4 "W" H 7510 15300 40  0001 C CNN "Wattage"
	1    7500 15300
	1    0    0    -1  
$EndComp
$Comp
L R-HRZ R18
U 1 1 519E4330
P 7500 16150
F 0 "R18" H 7510 16250 50  0000 C CNN
F 1 "10k" H 7505 16050 50  0000 C CNN
F 2 "~" H 7500 16150 60  0000 C CNN
F 3 "~" H 7500 16150 60  0000 C CNN
F 4 "W" H 7510 16150 40  0001 C CNN "Wattage"
	1    7500 16150
	1    0    0    -1  
$EndComp
$Comp
L GND #PWR09
U 1 1 519E441A
P 7750 14800
F 0 "#PWR09" H 7750 14800 30  0001 C CNN
F 1 "GND" H 7750 14730 30  0001 C CNN
F 2 "" H 7750 14800 60  0000 C CNN
F 3 "" H 7750 14800 60  0000 C CNN
	1    7750 14800
	1    0    0    -1  
$EndComp
$Comp
L GND #PWR010
U 1 1 519E4462
P 7750 15650
F 0 "#PWR010" H 7750 15650 30  0001 C CNN
F 1 "GND" H 7750 15580 30  0001 C CNN
F 2 "" H 7750 15650 60  0000 C CNN
F 3 "" H 7750 15650 60  0000 C CNN
	1    7750 15650
	1    0    0    -1  
$EndComp
$Comp
L GND #PWR011
U 1 1 519E4468
P 7750 16500
F 0 "#PWR011" H 7750 16500 30  0001 C CNN
F 1 "GND" H 7750 16430 30  0001 C CNN
F 2 "" H 7750 16500 60  0000 C CNN
F 3 "" H 7750 16500 60  0000 C CNN
	1    7750 16500
	1    0    0    -1  
$EndComp
$Comp
L VCC #PWR012
U 1 1 519E4806
P 7100 14350
F 0 "#PWR012" H 7100 14450 50  0001 C CNN
F 1 "VCC" H 7100 14450 50  0000 C CNN
F 2 "" H 7100 14350 60  0000 C CNN
F 3 "" H 7100 14350 60  0000 C CNN
	1    7100 14350
	1    0    0    -1  
$EndComp
Text GLabel 7650 14650 0    60   Input ~ 0
OInput1
Text GLabel 7650 15500 0    60   Input ~ 0
OInput2
Text GLabel 7650 16350 0    60   Input ~ 0
OInput3
$Comp
L DIODESCH D15
U 1 1 519E7CF6
P 3400 14250
F 0 "D15" H 3400 14150 40  0000 C CNN
F 1 "1N5819" H 3400 14050 40  0000 C CNN
F 2 "~" H 3400 14250 60  0000 C CNN
F 3 "~" H 3400 14250 60  0000 C CNN
	1    3400 14250
	1    0    0    -1  
$EndComp
$Comp
L NPN-SIMPLE Q1
U 1 1 519E81AC
P 2700 14700
F 0 "Q1" H 2800 14750 50  0000 L CNN
F 1 "BC547" H 2800 14650 50  0000 L CNN
F 2 "~" H 2700 14700 60  0000 C CNN
F 3 "~" H 2700 14700 60  0000 C CNN
	1    2700 14700
	1    0    0    -1  
$EndComp
$Comp
L LED D14
U 1 1 519E837E
P 3650 13900
F 0 "D14" V 3600 13700 40  0000 C CNN
F 1 "Red LED" V 3700 13700 40  0000 C CNN
F 2 "~" H 3650 13900 60  0000 C CNN
F 3 "~" H 3650 13900 60  0000 C CNN
	1    3650 13900
	0    1    1    0   
$EndComp
$Comp
L NPN-SIMPLE Q2
U 1 1 519E940C
P 2700 15950
F 0 "Q2" H 2800 16000 50  0000 L CNN
F 1 "BC547" H 2800 15900 50  0000 L CNN
F 2 "~" H 2700 15950 60  0000 C CNN
F 3 "~" H 2700 15950 60  0000 C CNN
	1    2700 15950
	1    0    0    -1  
$EndComp
$Comp
L NPN-SIMPLE Q3
U 1 1 519E953A
P 2700 17250
F 0 "Q3" H 2800 17300 50  0000 L CNN
F 1 "BC547" H 2800 17200 50  0000 L CNN
F 2 "~" H 2700 17250 60  0000 C CNN
F 3 "~" H 2700 17250 60  0000 C CNN
	1    2700 17250
	1    0    0    -1  
$EndComp
$Comp
L GND #PWR013
U 1 1 519E9540
P 2800 15300
F 0 "#PWR013" H 2800 15300 30  0001 C CNN
F 1 "GND" H 2800 15230 30  0001 C CNN
F 2 "" H 2800 15300 60  0000 C CNN
F 3 "" H 2800 15300 60  0000 C CNN
	1    2800 15300
	1    0    0    -1  
$EndComp
$Comp
L GND #PWR014
U 1 1 519E95DB
P 2800 16550
F 0 "#PWR014" H 2800 16550 30  0001 C CNN
F 1 "GND" H 2800 16480 30  0001 C CNN
F 2 "" H 2800 16550 60  0000 C CNN
F 3 "" H 2800 16550 60  0000 C CNN
	1    2800 16550
	1    0    0    -1  
$EndComp
$Comp
L GND #PWR015
U 1 1 519E95E1
P 2800 17850
F 0 "#PWR015" H 2800 17850 30  0001 C CNN
F 1 "GND" H 2800 17780 30  0001 C CNN
F 2 "" H 2800 17850 60  0000 C CNN
F 3 "" H 2800 17850 60  0000 C CNN
	1    2800 17850
	1    0    0    -1  
$EndComp
$Comp
L R-HRZ R10
U 1 1 519E986D
P 2200 14700
F 0 "R10" H 2210 14800 50  0000 C CNN
F 1 "2k7" H 2205 14600 50  0000 C CNN
F 2 "~" H 2200 14700 60  0000 C CNN
F 3 "~" H 2200 14700 60  0000 C CNN
F 4 "W" H 2210 14700 40  0001 C CNN "Wattage"
	1    2200 14700
	1    0    0    -1  
$EndComp
$Comp
L R-HRZ R11
U 1 1 519E9924
P 2200 15950
F 0 "R11" H 2210 16050 50  0000 C CNN
F 1 "2k7" H 2205 15850 50  0000 C CNN
F 2 "~" H 2200 15950 60  0000 C CNN
F 3 "~" H 2200 15950 60  0000 C CNN
F 4 "W" H 2210 15950 40  0001 C CNN "Wattage"
	1    2200 15950
	1    0    0    -1  
$EndComp
$Comp
L R-HRZ R12
U 1 1 519E992B
P 2200 17250
F 0 "R12" H 2210 17350 50  0000 C CNN
F 1 "2k7" H 2205 17150 50  0000 C CNN
F 2 "~" H 2200 17250 60  0000 C CNN
F 3 "~" H 2200 17250 60  0000 C CNN
F 4 "W" H 2210 17250 40  0001 C CNN "Wattage"
	1    2200 17250
	1    0    0    -1  
$EndComp
$Comp
L GND #PWR016
U 1 1 519EA7F3
P 2100 2600
F 0 "#PWR016" H 2100 2600 30  0001 C CNN
F 1 "GND" H 2100 2530 30  0001 C CNN
F 2 "" H 2100 2600 60  0000 C CNN
F 3 "" H 2100 2600 60  0000 C CNN
	1    2100 2600
	1    0    0    -1  
$EndComp
$Comp
L CONNECTOR-2 P1
U 1 1 519EAC12
P 950 1550
F 0 "P1" H 900 1700 60  0000 C CNN
F 1 "Power In" H 1000 1250 50  0000 C CNN
F 2 "~" H 950 1550 60  0000 C CNN
F 3 "~" H 950 1550 60  0000 C CNN
	1    950  1550
	1    0    0    -1  
$EndComp
$Comp
L VCC #PWR017
U 1 1 519EB2E6
P 6350 1550
F 0 "#PWR017" H 6350 1650 50  0001 C CNN
F 1 "VCC" H 6350 1650 50  0000 C CNN
F 2 "" H 6350 1550 60  0000 C CNN
F 3 "" H 6350 1550 60  0000 C CNN
	1    6350 1550
	1    0    0    -1  
$EndComp
$Comp
L CRYSTAL X1
U 1 1 519ECD01
P 1850 11650
F 0 "X1" H 1650 11700 60  0000 C CNN
F 1 "20MHz" H 1850 11500 60  0000 C CNN
F 2 "" H 1850 11650 60  0001 C CNN
F 3 "" H 1850 11650 60  0001 C CNN
	1    1850 11650
	1    0    0    -1  
$EndComp
$Comp
L C-VERT C1
U 1 1 519ECEBF
P 1500 12050
F 0 "C1" H 1650 12100 50  0000 L CNN
F 1 "22p" H 1650 12000 50  0000 L CNN
F 2 "" H 1500 12050 60  0001 C CNN
F 3 "" H 1500 12050 60  0001 C CNN
F 4 "V" H 1650 11900 40  0001 L CNN "Voltage"
	1    1500 12050
	-1   0    0    -1  
$EndComp
$Comp
L C-VERT C3
U 1 1 519ECEC6
P 2250 12050
F 0 "C3" H 2400 12100 50  0000 L CNN
F 1 "22p" H 2400 12000 50  0000 L CNN
F 2 "" H 2250 12050 60  0001 C CNN
F 3 "" H 2250 12050 60  0001 C CNN
F 4 "V" H 2400 11900 40  0001 L CNN "Voltage"
	1    2250 12050
	-1   0    0    -1  
$EndComp
$Comp
L GND #PWR018
U 1 1 519ED0B7
P 1500 12300
F 0 "#PWR018" H 1500 12300 30  0001 C CNN
F 1 "GND" H 1500 12230 30  0001 C CNN
F 2 "" H 1500 12300 60  0000 C CNN
F 3 "" H 1500 12300 60  0000 C CNN
	1    1500 12300
	1    0    0    -1  
$EndComp
$Comp
L GND #PWR019
U 1 1 519ED1CC
P 2250 12300
F 0 "#PWR019" H 2250 12300 30  0001 C CNN
F 1 "GND" H 2250 12230 30  0001 C CNN
F 2 "" H 2250 12300 60  0000 C CNN
F 3 "" H 2250 12300 60  0000 C CNN
	1    2250 12300
	1    0    0    -1  
$EndComp
$Comp
L R-HRZ R7
U 1 1 519ED63C
P 8900 1950
F 0 "R7" H 8910 2050 50  0000 C CNN
F 1 "330R" H 8905 1850 50  0000 C CNN
F 2 "~" H 8900 1950 60  0000 C CNN
F 3 "~" H 8900 1950 60  0000 C CNN
F 4 "W" H 8910 1950 40  0001 C CNN "Wattage"
	1    8900 1950
	-1   0    0    -1  
$EndComp
$Comp
L GND #PWR020
U 1 1 519EDBF6
P 8400 2500
F 0 "#PWR020" H 8400 2500 30  0001 C CNN
F 1 "GND" H 8400 2430 30  0001 C CNN
F 2 "" H 8400 2500 60  0000 C CNN
F 3 "" H 8400 2500 60  0000 C CNN
	1    8400 2500
	-1   0    0    -1  
$EndComp
$Comp
L DIODE D7
U 1 1 519EDDC7
P 8400 2250
F 0 "D7" V 8450 2150 40  0000 R CNN
F 1 "1N4007" V 8350 2150 40  0000 R CNN
F 2 "~" H 8400 2250 60  0000 C CNN
F 3 "~" H 8400 2250 60  0000 C CNN
	1    8400 2250
	0    1    -1   0   
$EndComp
$Comp
L VCC #PWR021
U 1 1 519EDEBF
P 8400 1400
F 0 "#PWR021" H 8400 1500 50  0001 C CNN
F 1 "VCC" H 8400 1500 50  0000 C CNN
F 2 "" H 8400 1400 60  0000 C CNN
F 3 "" H 8400 1400 60  0000 C CNN
	1    8400 1400
	-1   0    0    -1  
$EndComp
$Comp
L DIODE D6
U 1 1 519EE0CB
P 8400 1650
F 0 "D6" V 8450 1550 40  0000 R CNN
F 1 "1N4007" V 8350 1550 40  0000 R CNN
F 2 "~" H 8400 1650 60  0000 C CNN
F 3 "~" H 8400 1650 60  0000 C CNN
	1    8400 1650
	0    1    -1   0   
$EndComp
$Comp
L C-HRZ C7
U 1 1 519EE630
P 3900 9150
F 0 "C7" H 3899 9325 50  0000 C CNN
F 1 "150n" H 3899 8975 50  0000 C CNN
F 2 "" H 3900 9150 60  0001 C CNN
F 3 "" H 3900 9150 60  0001 C CNN
F 4 "V" H 3899 8875 40  0001 C CNN "Voltage"
	1    3900 9150
	1    0    0    -1  
$EndComp
$Comp
L VCC #PWR022
U 1 1 519EE63D
P 3600 9050
F 0 "#PWR022" H 3600 9150 50  0001 C CNN
F 1 "VCC" H 3600 9150 50  0000 C CNN
F 2 "" H 3600 9050 60  0000 C CNN
F 3 "" H 3600 9050 60  0000 C CNN
	1    3600 9050
	1    0    0    -1  
$EndComp
$Comp
L GND #PWR023
U 1 1 519EE72B
P 4150 9200
F 0 "#PWR023" H 4150 9200 30  0001 C CNN
F 1 "GND" H 4150 9130 30  0001 C CNN
F 2 "" H 4150 9200 60  0000 C CNN
F 3 "" H 4150 9200 60  0000 C CNN
	1    4150 9200
	1    0    0    -1  
$EndComp
$Comp
L C-HRZ C8
U 1 1 519EE822
P 4700 9150
F 0 "C8" H 4699 9325 50  0000 C CNN
F 1 "150n" H 4699 8975 50  0000 C CNN
F 2 "" H 4700 9150 60  0001 C CNN
F 3 "" H 4700 9150 60  0001 C CNN
F 4 "V" H 4699 8875 40  0001 C CNN "Voltage"
	1    4700 9150
	1    0    0    -1  
$EndComp
$Comp
L VCC #PWR024
U 1 1 519EE828
P 4400 9050
F 0 "#PWR024" H 4400 9150 50  0001 C CNN
F 1 "VCC" H 4400 9150 50  0000 C CNN
F 2 "" H 4400 9050 60  0000 C CNN
F 3 "" H 4400 9050 60  0000 C CNN
	1    4400 9050
	1    0    0    -1  
$EndComp
$Comp
L GND #PWR025
U 1 1 519EE830
P 4950 9200
F 0 "#PWR025" H 4950 9200 30  0001 C CNN
F 1 "GND" H 4950 9130 30  0001 C CNN
F 2 "" H 4950 9200 60  0000 C CNN
F 3 "" H 4950 9200 60  0000 C CNN
	1    4950 9200
	1    0    0    -1  
$EndComp
$Comp
L GND #PWR026
U 1 1 519EEF74
P 1800 10550
F 0 "#PWR026" H 1800 10550 30  0001 C CNN
F 1 "GND" H 1800 10480 30  0001 C CNN
F 2 "" H 1800 10550 60  0001 C CNN
F 3 "" H 1800 10550 60  0001 C CNN
	1    1800 10550
	1    0    0    -1  
$EndComp
$Comp
L C-VERT C2
U 1 1 519EEF7B
P 1800 10200
F 0 "C2" H 1950 10250 50  0000 L CNN
F 1 "150n" H 1950 10150 50  0000 L CNN
F 2 "" H 1800 10200 60  0001 C CNN
F 3 "" H 1800 10200 60  0001 C CNN
F 4 "V" H 1950 10050 40  0001 L CNN "Voltage"
	1    1800 10200
	1    0    0    -1  
$EndComp
$Comp
L R-HRZ R2
U 1 1 519EEF82
P 2150 9700
F 0 "R2" H 2160 9800 50  0000 C CNN
F 1 "330" H 2155 9600 50  0000 C CNN
F 2 "" H 2150 9700 60  0001 C CNN
F 3 "" H 2150 9700 60  0001 C CNN
F 4 "W" H 2160 9700 40  0001 C CNN "Wattage"
	1    2150 9700
	1    0    0    -1  
$EndComp
$Comp
L R-VERT R1
U 1 1 519EEF89
P 1800 9350
F 0 "R1" H 1880 9400 50  0000 L CNN
F 1 "10k" H 1880 9300 50  0000 L CNN
F 2 "" H 1800 9350 60  0001 C CNN
F 3 "" H 1800 9350 60  0001 C CNN
F 4 "W" H 1880 9200 40  0001 L CNN "Wattage"
	1    1800 9350
	-1   0    0    -1  
$EndComp
$Comp
L VCC #PWR027
U 1 1 519EEF8F
P 1800 9050
F 0 "#PWR027" H 1800 9150 30  0001 C CNN
F 1 "VCC" H 1800 9150 50  0000 C CNN
F 2 "" H 1800 9050 60  0000 C CNN
F 3 "" H 1800 9050 60  0000 C CNN
	1    1800 9050
	1    0    0    -1  
$EndComp
$Comp
L SW_PUSH SW1
U 1 1 519EF092
P 1500 10150
F 0 "SW1" V 1500 10300 35  0000 C CNN
F 1 "SW_PUSH" H 1500 10070 50  0001 C CNN
F 2 "~" H 1500 10150 60  0000 C CNN
F 3 "~" H 1500 10150 60  0000 C CNN
	1    1500 10150
	0    -1   -1   0   
$EndComp
$Comp
L GND #PWR028
U 1 1 519EF203
P 1500 10550
F 0 "#PWR028" H 1500 10550 30  0001 C CNN
F 1 "GND" H 1500 10480 30  0001 C CNN
F 2 "" H 1500 10550 60  0001 C CNN
F 3 "" H 1500 10550 60  0001 C CNN
	1    1500 10550
	1    0    0    -1  
$EndComp
$Comp
L VCC #PWR029
U 1 1 519EFFAF
P 3000 11200
F 0 "#PWR029" H 3000 11300 50  0001 C CNN
F 1 "VCC" H 3000 11300 50  0000 C CNN
F 2 "" H 3000 11200 60  0000 C CNN
F 3 "" H 3000 11200 60  0000 C CNN
	1    3000 11200
	0    -1   -1   0   
$EndComp
$Comp
L GND #PWR030
U 1 1 519EFFB5
P 2950 11350
F 0 "#PWR030" H 2950 11350 30  0001 C CNN
F 1 "GND" H 2950 11280 30  0001 C CNN
F 2 "" H 2950 11350 60  0001 C CNN
F 3 "" H 2950 11350 60  0001 C CNN
	1    2950 11350
	0    1    1    0   
$EndComp
$Comp
L VCC #PWR031
U 1 1 519F01AC
P 5600 10900
F 0 "#PWR031" H 5600 11000 50  0001 C CNN
F 1 "VCC" H 5600 11000 50  0000 C CNN
F 2 "" H 5600 10900 60  0000 C CNN
F 3 "" H 5600 10900 60  0000 C CNN
	1    5600 10900
	0    1    -1   0   
$EndComp
$Comp
L GND #PWR032
U 1 1 519F01B2
P 5650 11050
F 0 "#PWR032" H 5650 11050 30  0001 C CNN
F 1 "GND" H 5650 10980 30  0001 C CNN
F 2 "" H 5650 11050 60  0001 C CNN
F 3 "" H 5650 11050 60  0001 C CNN
	1    5650 11050
	0    -1   1    0   
$EndComp
$Comp
L VCC #PWR033
U 1 1 519F096B
P 9750 1500
F 0 "#PWR033" H 9750 1600 50  0001 C CNN
F 1 "VCC" H 9750 1600 50  0000 C CNN
F 2 "" H 9750 1500 60  0000 C CNN
F 3 "" H 9750 1500 60  0000 C CNN
	1    9750 1500
	-1   0    0    -1  
$EndComp
$Comp
L R-HRZ R8
U 1 1 519F0CA3
P 8900 3300
F 0 "R8" H 8910 3400 50  0000 C CNN
F 1 "330R" H 8905 3200 50  0000 C CNN
F 2 "~" H 8900 3300 60  0000 C CNN
F 3 "~" H 8900 3300 60  0000 C CNN
F 4 "W" H 8910 3300 40  0001 C CNN "Wattage"
	1    8900 3300
	-1   0    0    -1  
$EndComp
$Comp
L GND #PWR034
U 1 1 519F0CAA
P 8400 3850
F 0 "#PWR034" H 8400 3850 30  0001 C CNN
F 1 "GND" H 8400 3780 30  0001 C CNN
F 2 "" H 8400 3850 60  0000 C CNN
F 3 "" H 8400 3850 60  0000 C CNN
	1    8400 3850
	-1   0    0    -1  
$EndComp
$Comp
L DIODE D9
U 1 1 519F0CB0
P 8400 3600
F 0 "D9" V 8450 3500 40  0000 R CNN
F 1 "1N4007" V 8350 3500 40  0000 R CNN
F 2 "~" H 8400 3600 60  0000 C CNN
F 3 "~" H 8400 3600 60  0000 C CNN
	1    8400 3600
	0    1    -1   0   
$EndComp
$Comp
L VCC #PWR035
U 1 1 519F0CB6
P 8400 2750
F 0 "#PWR035" H 8400 2850 50  0001 C CNN
F 1 "VCC" H 8400 2850 50  0000 C CNN
F 2 "" H 8400 2750 60  0000 C CNN
F 3 "" H 8400 2750 60  0000 C CNN
	1    8400 2750
	-1   0    0    -1  
$EndComp
$Comp
L DIODE D8
U 1 1 519F0CBE
P 8400 3000
F 0 "D8" V 8450 2900 40  0000 R CNN
F 1 "1N4007" V 8350 2900 40  0000 R CNN
F 2 "~" H 8400 3000 60  0000 C CNN
F 3 "~" H 8400 3000 60  0000 C CNN
	1    8400 3000
	0    1    -1   0   
$EndComp
$Comp
L R-HRZ R9
U 1 1 519F0DD0
P 8900 4650
F 0 "R9" H 8910 4750 50  0000 C CNN
F 1 "330R" H 8905 4550 50  0000 C CNN
F 2 "~" H 8900 4650 60  0000 C CNN
F 3 "~" H 8900 4650 60  0000 C CNN
F 4 "W" H 8910 4650 40  0001 C CNN "Wattage"
	1    8900 4650
	-1   0    0    -1  
$EndComp
$Comp
L GND #PWR036
U 1 1 519F0DD7
P 8400 5200
F 0 "#PWR036" H 8400 5200 30  0001 C CNN
F 1 "GND" H 8400 5130 30  0001 C CNN
F 2 "" H 8400 5200 60  0000 C CNN
F 3 "" H 8400 5200 60  0000 C CNN
	1    8400 5200
	-1   0    0    -1  
$EndComp
$Comp
L DIODE D11
U 1 1 519F0DDD
P 8400 4950
F 0 "D11" V 8450 4850 40  0000 R CNN
F 1 "1N4007" V 8350 4850 40  0000 R CNN
F 2 "~" H 8400 4950 60  0000 C CNN
F 3 "~" H 8400 4950 60  0000 C CNN
	1    8400 4950
	0    1    -1   0   
$EndComp
$Comp
L VCC #PWR037
U 1 1 519F0DE3
P 8400 4100
F 0 "#PWR037" H 8400 4200 50  0001 C CNN
F 1 "VCC" H 8400 4200 50  0000 C CNN
F 2 "" H 8400 4100 60  0000 C CNN
F 3 "" H 8400 4100 60  0000 C CNN
	1    8400 4100
	-1   0    0    -1  
$EndComp
$Comp
L DIODE D10
U 1 1 519F0DEB
P 8400 4350
F 0 "D10" V 8450 4250 40  0000 R CNN
F 1 "1N4007" V 8350 4250 40  0000 R CNN
F 2 "~" H 8400 4350 60  0000 C CNN
F 3 "~" H 8400 4350 60  0000 C CNN
	1    8400 4350
	0    1    -1   0   
$EndComp
$Comp
L NPN-SIMPLE Q4
U 1 1 519F121E
P 4200 4000
F 0 "Q4" H 4300 4050 50  0000 L CNN
F 1 "BC547" H 4300 3950 50  0000 L CNN
F 2 "~" H 4200 4000 60  0000 C CNN
F 3 "~" H 4200 4000 60  0000 C CNN
	1    4200 4000
	1    0    0    -1  
$EndComp
$Comp
L NPN-SIMPLE Q5
U 1 1 519F1224
P 4200 4950
F 0 "Q5" H 4300 5000 50  0000 L CNN
F 1 "BC547" H 4300 4900 50  0000 L CNN
F 2 "~" H 4200 4950 60  0000 C CNN
F 3 "~" H 4200 4950 60  0000 C CNN
	1    4200 4950
	1    0    0    -1  
$EndComp
$Comp
L NPN-SIMPLE Q6
U 1 1 519F122A
P 4200 5850
F 0 "Q6" H 4300 5900 50  0000 L CNN
F 1 "BC547" H 4300 5800 50  0000 L CNN
F 2 "~" H 4200 5850 60  0000 C CNN
F 3 "~" H 4200 5850 60  0000 C CNN
	1    4200 5850
	1    0    0    -1  
$EndComp
$Comp
L GND #PWR038
U 1 1 519F1230
P 4300 4600
F 0 "#PWR038" H 4300 4600 30  0001 C CNN
F 1 "GND" H 4300 4530 30  0001 C CNN
F 2 "" H 4300 4600 60  0000 C CNN
F 3 "" H 4300 4600 60  0000 C CNN
	1    4300 4600
	1    0    0    -1  
$EndComp
$Comp
L GND #PWR039
U 1 1 519F1236
P 4300 5500
F 0 "#PWR039" H 4300 5500 30  0001 C CNN
F 1 "GND" H 4300 5430 30  0001 C CNN
F 2 "" H 4300 5500 60  0000 C CNN
F 3 "" H 4300 5500 60  0000 C CNN
	1    4300 5500
	1    0    0    -1  
$EndComp
$Comp
L GND #PWR040
U 1 1 519F123C
P 4300 6450
F 0 "#PWR040" H 4300 6450 30  0001 C CNN
F 1 "GND" H 4300 6380 30  0001 C CNN
F 2 "" H 4300 6450 60  0000 C CNN
F 3 "" H 4300 6450 60  0000 C CNN
	1    4300 6450
	1    0    0    -1  
$EndComp
$Comp
L R-HRZ R19
U 1 1 519F1243
P 3700 4000
F 0 "R19" H 3710 4100 50  0000 C CNN
F 1 "330R" H 3705 3900 50  0000 C CNN
F 2 "~" H 3700 4000 60  0000 C CNN
F 3 "~" H 3700 4000 60  0000 C CNN
F 4 "W" H 3710 4000 40  0001 C CNN "Wattage"
	1    3700 4000
	1    0    0    -1  
$EndComp
$Comp
L R-HRZ R20
U 1 1 519F124A
P 3700 4950
F 0 "R20" H 3710 5050 50  0000 C CNN
F 1 "330R" H 3705 4850 50  0000 C CNN
F 2 "~" H 3700 4950 60  0000 C CNN
F 3 "~" H 3700 4950 60  0000 C CNN
F 4 "W" H 3710 4950 40  0001 C CNN "Wattage"
	1    3700 4950
	1    0    0    -1  
$EndComp
$Comp
L R-HRZ R21
U 1 1 519F1251
P 3700 5850
F 0 "R21" H 3710 5950 50  0000 C CNN
F 1 "330R" H 3705 5750 50  0000 C CNN
F 2 "~" H 3700 5850 60  0000 C CNN
F 3 "~" H 3700 5850 60  0000 C CNN
F 4 "W" H 3710 5850 40  0001 C CNN "Wattage"
	1    3700 5850
	1    0    0    -1  
$EndComp
$Comp
L GND #PWR041
U 1 1 519F1271
P 5150 4250
F 0 "#PWR041" H 5150 4250 30  0001 C CNN
F 1 "GND" H 5150 4180 30  0001 C CNN
F 2 "" H 5150 4250 60  0000 C CNN
F 3 "" H 5150 4250 60  0000 C CNN
	1    5150 4250
	-1   0    0    -1  
$EndComp
$Comp
L GND #PWR042
U 1 1 519F1E08
P 3200 4550
F 0 "#PWR042" H 3200 4550 30  0001 C CNN
F 1 "GND" H 3200 4480 30  0001 C CNN
F 2 "" H 3200 4550 60  0000 C CNN
F 3 "" H 3200 4550 60  0000 C CNN
	1    3200 4550
	-1   0    0    -1  
$EndComp
$Comp
L DIODE D21
U 1 1 519F1E0E
P 3200 4300
F 0 "D21" V 3250 4200 40  0000 R CNN
F 1 "1N4007" V 3150 4200 40  0000 R CNN
F 2 "~" H 3200 4300 60  0000 C CNN
F 3 "~" H 3200 4300 60  0000 C CNN
	1    3200 4300
	0    1    -1   0   
$EndComp
$Comp
L VCC #PWR043
U 1 1 519F1E14
P 3200 3450
F 0 "#PWR043" H 3200 3550 50  0001 C CNN
F 1 "VCC" H 3200 3550 50  0000 C CNN
F 2 "" H 3200 3450 60  0000 C CNN
F 3 "" H 3200 3450 60  0000 C CNN
	1    3200 3450
	-1   0    0    -1  
$EndComp
$Comp
L DIODE D20
U 1 1 519F1E1C
P 3200 3700
F 0 "D20" V 3250 3600 40  0000 R CNN
F 1 "1N4007" V 3150 3600 40  0000 R CNN
F 2 "~" H 3200 3700 60  0000 C CNN
F 3 "~" H 3200 3700 60  0000 C CNN
	1    3200 3700
	0    1    -1   0   
$EndComp
$Comp
L GND #PWR044
U 1 1 519F1E25
P 3200 6400
F 0 "#PWR044" H 3200 6400 30  0001 C CNN
F 1 "GND" H 3200 6330 30  0001 C CNN
F 2 "" H 3200 6400 60  0000 C CNN
F 3 "" H 3200 6400 60  0000 C CNN
	1    3200 6400
	-1   0    0    -1  
$EndComp
$Comp
L DIODE D23
U 1 1 519F1E2B
P 3200 6150
F 0 "D23" V 3250 6050 40  0000 R CNN
F 1 "1N4007" V 3150 6050 40  0000 R CNN
F 2 "~" H 3200 6150 60  0000 C CNN
F 3 "~" H 3200 6150 60  0000 C CNN
	1    3200 6150
	0    1    -1   0   
$EndComp
$Comp
L VCC #PWR045
U 1 1 519F1E31
P 3200 5300
F 0 "#PWR045" H 3200 5400 50  0001 C CNN
F 1 "VCC" H 3200 5400 50  0000 C CNN
F 2 "" H 3200 5300 60  0000 C CNN
F 3 "" H 3200 5300 60  0000 C CNN
	1    3200 5300
	-1   0    0    -1  
$EndComp
$Comp
L DIODE D22
U 1 1 519F1E39
P 3200 5550
F 0 "D22" V 3250 5450 40  0000 R CNN
F 1 "1N4007" V 3150 5450 40  0000 R CNN
F 2 "~" H 3200 5550 60  0000 C CNN
F 3 "~" H 3200 5550 60  0000 C CNN
	1    3200 5550
	0    1    -1   0   
$EndComp
$Comp
L GND #PWR046
U 1 1 519F1E42
P 2500 5500
F 0 "#PWR046" H 2500 5500 30  0001 C CNN
F 1 "GND" H 2500 5430 30  0001 C CNN
F 2 "" H 2500 5500 60  0000 C CNN
F 3 "" H 2500 5500 60  0000 C CNN
	1    2500 5500
	-1   0    0    -1  
$EndComp
$Comp
L DIODE D13
U 1 1 519F1E48
P 2500 5250
F 0 "D13" V 2550 5150 40  0000 R CNN
F 1 "1N4007" V 2450 5150 40  0000 R CNN
F 2 "~" H 2500 5250 60  0000 C CNN
F 3 "~" H 2500 5250 60  0000 C CNN
	1    2500 5250
	0    1    -1   0   
$EndComp
$Comp
L VCC #PWR047
U 1 1 519F1E4E
P 2500 4400
F 0 "#PWR047" H 2500 4500 50  0001 C CNN
F 1 "VCC" H 2500 4500 50  0000 C CNN
F 2 "" H 2500 4400 60  0000 C CNN
F 3 "" H 2500 4400 60  0000 C CNN
	1    2500 4400
	-1   0    0    -1  
$EndComp
$Comp
L DIODE D12
U 1 1 519F1E56
P 2500 4650
F 0 "D12" V 2550 4550 40  0000 R CNN
F 1 "1N4007" V 2450 4550 40  0000 R CNN
F 2 "~" H 2500 4650 60  0000 C CNN
F 3 "~" H 2500 4650 60  0000 C CNN
	1    2500 4650
	0    1    -1   0   
$EndComp
$Comp
L MAX202E U3
U 1 1 519F60A8
P 8100 11650
F 0 "U3" H 7550 10850 60  0000 C CNN
F 1 "MAX232" H 7650 12400 60  0000 C CNN
F 2 "" H 8100 11650 60  0001 C CNN
F 3 "" H 8100 11650 60  0001 C CNN
	1    8100 11650
	1    0    0    -1  
$EndComp
$Comp
L GND #PWR048
U 1 1 519F60CC
P 9250 11650
F 0 "#PWR048" H 9250 11650 30  0001 C CNN
F 1 "GND" H 9250 11580 30  0001 C CNN
F 2 "" H 9250 11650 60  0001 C CNN
F 3 "" H 9250 11650 60  0001 C CNN
	1    9250 11650
	1    0    0    -1  
$EndComp
$Comp
L GND #PWR049
U 1 1 519F60D2
P 8100 12700
F 0 "#PWR049" H 8100 12700 30  0001 C CNN
F 1 "GND" H 8100 12630 30  0001 C CNN
F 2 "" H 8100 12700 60  0001 C CNN
F 3 "" H 8100 12700 60  0001 C CNN
	1    8100 12700
	1    0    0    -1  
$EndComp
$Comp
L DB9 J1
U 1 1 519F60D8
P 10750 11800
F 0 "J1" H 10750 12350 70  0000 C CNN
F 1 "DE9" H 10750 11250 70  0000 C CNN
F 2 "" H 10750 11800 60  0001 C CNN
F 3 "" H 10750 11800 60  0001 C CNN
	1    10750 11800
	1    0    0    -1  
$EndComp
$Comp
L GND #PWR050
U 1 1 519F60DE
P 10200 11450
F 0 "#PWR050" H 10200 11450 30  0001 C CNN
F 1 "GND" H 10200 11380 30  0001 C CNN
F 2 "" H 10200 11450 60  0001 C CNN
F 3 "" H 10200 11450 60  0001 C CNN
	1    10200 11450
	1    0    0    -1  
$EndComp
$Comp
L VCC #PWR051
U 1 1 519F60E4
P 8100 10250
F 0 "#PWR051" H 8100 10350 30  0001 C CNN
F 1 "VCC" H 8100 10350 50  0000 C CNN
F 2 "" H 8100 10250 60  0000 C CNN
F 3 "" H 8100 10250 60  0000 C CNN
	1    8100 10250
	1    0    0    -1  
$EndComp
$Comp
L CP-VERT C14
U 1 1 519F6104
P 9250 11400
F 0 "C14" H 9400 11350 50  0000 L CNN
F 1 "1uF" H 9400 11450 50  0000 L CNN
F 2 "~" H 9250 11400 60  0000 C CNN
F 3 "~" H 9250 11400 60  0000 C CNN
F 4 "35V" H 9400 11250 40  0001 L CNN "Voltage"
	1    9250 11400
	1    0    0    1   
$EndComp
$Comp
L CP-VERT C11
U 1 1 519F6153
P 6700 11050
F 0 "C11" V 6750 11150 50  0000 L CNN
F 1 "1uF" V 6750 10850 50  0000 L CNN
F 2 "~" H 6700 11050 60  0000 C CNN
F 3 "~" H 6700 11050 60  0000 C CNN
F 4 "35V" H 6850 10900 40  0001 L CNN "Voltage"
	1    6700 11050
	0    1    -1   0   
$EndComp
$Comp
L CP-VERT C12
U 1 1 519F617E
P 6700 11450
F 0 "C12" V 6750 11550 50  0000 L CNN
F 1 "1uF" V 6750 11250 50  0000 L CNN
F 2 "~" H 6700 11450 60  0000 C CNN
F 3 "~" H 6700 11450 60  0000 C CNN
F 4 "35V" H 6850 11300 40  0001 L CNN "Voltage"
	1    6700 11450
	0    1    -1   0   
$EndComp
Text GLabel 5550 12250 2    60   Input ~ 0
Relay1
Text GLabel 1900 15950 0    60   Input ~ 0
Relay2
Text GLabel 1900 17250 0    60   Input ~ 0
Relay3
Text GLabel 3150 4000 0    60   Input ~ 0
OCT1
Text GLabel 2450 4950 0    60   Input ~ 0
OCT2
Text GLabel 3150 5850 0    60   Input ~ 0
OCT3
Text GLabel 8300 1950 0    60   Input ~ 0
ADI1
Text GLabel 8300 3300 0    60   Input ~ 0
ADI2
Text GLabel 8300 4650 0    60   Input ~ 0
ADI3
$Comp
L DIODE D3
U 1 1 519F9DAE
P 1850 2150
F 0 "D3" H 1850 2250 40  0000 C CNN
F 1 "1N4007" H 1850 2050 40  0000 C CNN
F 2 "~" H 1850 2150 60  0000 C CNN
F 3 "~" H 1850 2150 60  0000 C CNN
	1    1850 2150
	-1   0    0    -1  
$EndComp
$Comp
L DIODE D1
U 1 1 519F9DF2
P 1850 1550
F 0 "D1" H 1850 1650 40  0000 C CNN
F 1 "1N4007" H 1850 1450 40  0000 C CNN
F 2 "~" H 1850 1550 60  0000 C CNN
F 3 "~" H 1850 1550 60  0000 C CNN
	1    1850 1550
	1    0    0    -1  
$EndComp
$Comp
L DIODE D2
U 1 1 519F9E02
P 1850 1850
F 0 "D2" H 1850 1950 40  0000 C CNN
F 1 "1N4007" H 1850 1750 40  0000 C CNN
F 2 "~" H 1850 1850 60  0000 C CNN
F 3 "~" H 1850 1850 60  0000 C CNN
	1    1850 1850
	1    0    0    -1  
$EndComp
$Comp
L DIODE D4
U 1 1 519F9E12
P 1850 2450
F 0 "D4" H 1850 2550 40  0000 C CNN
F 1 "1N4007" H 1850 2350 40  0000 C CNN
F 2 "~" H 1850 2450 60  0000 C CNN
F 3 "~" H 1850 2450 60  0000 C CNN
	1    1850 2450
	-1   0    0    -1  
$EndComp
$Comp
L R-VERT R13
U 1 1 519FA20B
P 2500 15000
F 0 "R13" H 2580 15050 50  0000 L CNN
F 1 "10k" H 2580 14950 50  0000 L CNN
F 2 "~" H 2500 15000 60  0000 C CNN
F 3 "~" H 2500 15000 60  0000 C CNN
F 4 "W" H 2580 14850 40  0001 L CNN "Wattage"
	1    2500 15000
	-1   0    0    -1  
$EndComp
$Comp
L GND #PWR052
U 1 1 519FA247
P 2500 15300
F 0 "#PWR052" H 2500 15300 30  0001 C CNN
F 1 "GND" H 2500 15230 30  0001 C CNN
F 2 "" H 2500 15300 60  0000 C CNN
F 3 "" H 2500 15300 60  0000 C CNN
	1    2500 15300
	1    0    0    -1  
$EndComp
$Comp
L R-VERT R14
U 1 1 519FA53B
P 2500 16250
F 0 "R14" H 2580 16300 50  0000 L CNN
F 1 "10k" H 2580 16200 50  0000 L CNN
F 2 "~" H 2500 16250 60  0000 C CNN
F 3 "~" H 2500 16250 60  0000 C CNN
F 4 "W" H 2580 16100 40  0001 L CNN "Wattage"
	1    2500 16250
	-1   0    0    -1  
$EndComp
$Comp
L R-VERT R15
U 1 1 519FA542
P 2500 17550
F 0 "R15" H 2580 17600 50  0000 L CNN
F 1 "10k" H 2580 17500 50  0000 L CNN
F 2 "~" H 2500 17550 60  0000 C CNN
F 3 "~" H 2500 17550 60  0000 C CNN
F 4 "W" H 2580 17400 40  0001 L CNN "Wattage"
	1    2500 17550
	-1   0    0    -1  
$EndComp
$Comp
L GND #PWR053
U 1 1 519FA548
P 2500 16550
F 0 "#PWR053" H 2500 16550 30  0001 C CNN
F 1 "GND" H 2500 16480 30  0001 C CNN
F 2 "" H 2500 16550 60  0000 C CNN
F 3 "" H 2500 16550 60  0000 C CNN
	1    2500 16550
	1    0    0    -1  
$EndComp
$Comp
L GND #PWR054
U 1 1 519FA54E
P 2500 17850
F 0 "#PWR054" H 2500 17850 30  0001 C CNN
F 1 "GND" H 2500 17780 30  0001 C CNN
F 2 "" H 2500 17850 60  0000 C CNN
F 3 "" H 2500 17850 60  0000 C CNN
	1    2500 17850
	1    0    0    -1  
$EndComp
$Comp
L R-VERT R22
U 1 1 519FB40D
P 4000 4300
F 0 "R22" H 4080 4350 50  0000 L CNN
F 1 "10k" H 4080 4250 50  0000 L CNN
F 2 "~" H 4000 4300 60  0000 C CNN
F 3 "~" H 4000 4300 60  0000 C CNN
F 4 "W" H 4080 4150 40  0001 L CNN "Wattage"
	1    4000 4300
	-1   0    0    -1  
$EndComp
$Comp
L GND #PWR055
U 1 1 519FB413
P 4000 4600
F 0 "#PWR055" H 4000 4600 30  0001 C CNN
F 1 "GND" H 4000 4530 30  0001 C CNN
F 2 "" H 4000 4600 60  0000 C CNN
F 3 "" H 4000 4600 60  0000 C CNN
	1    4000 4600
	1    0    0    -1  
$EndComp
$Comp
L R-VERT R23
U 1 1 519FB41D
P 4000 5250
F 0 "R23" H 4080 5300 50  0000 L CNN
F 1 "10k" H 4080 5200 50  0000 L CNN
F 2 "~" H 4000 5250 60  0000 C CNN
F 3 "~" H 4000 5250 60  0000 C CNN
F 4 "W" H 4080 5100 40  0001 L CNN "Wattage"
	1    4000 5250
	-1   0    0    -1  
$EndComp
$Comp
L GND #PWR056
U 1 1 519FB423
P 4000 5550
F 0 "#PWR056" H 4000 5550 30  0001 C CNN
F 1 "GND" H 4000 5480 30  0001 C CNN
F 2 "" H 4000 5550 60  0000 C CNN
F 3 "" H 4000 5550 60  0000 C CNN
	1    4000 5550
	1    0    0    -1  
$EndComp
$Comp
L R-VERT R24
U 1 1 519FB42B
P 4000 6150
F 0 "R24" H 4080 6200 50  0000 L CNN
F 1 "10k" H 4080 6100 50  0000 L CNN
F 2 "~" H 4000 6150 60  0000 C CNN
F 3 "~" H 4000 6150 60  0000 C CNN
F 4 "W" H 4080 6000 40  0001 L CNN "Wattage"
	1    4000 6150
	-1   0    0    -1  
$EndComp
$Comp
L GND #PWR057
U 1 1 519FB431
P 4000 6450
F 0 "#PWR057" H 4000 6450 30  0001 C CNN
F 1 "GND" H 4000 6380 30  0001 C CNN
F 2 "" H 4000 6450 60  0000 C CNN
F 3 "" H 4000 6450 60  0000 C CNN
	1    4000 6450
	1    0    0    -1  
$EndComp
$Comp
L CP-VERT C15
U 1 1 519FD672
P 9700 11400
F 0 "C15" H 9850 11450 50  0000 L CNN
F 1 "1uF" H 9850 11350 50  0000 L CNN
F 2 "~" H 9700 11400 60  0000 C CNN
F 3 "~" H 9700 11400 60  0000 C CNN
F 4 "25V" H 9850 11250 40  0001 L CNN "Voltage"
	1    9700 11400
	1    0    0    -1  
$EndComp
$Comp
L GND #PWR058
U 1 1 519FD7EF
P 9700 11650
F 0 "#PWR058" H 9700 11650 30  0001 C CNN
F 1 "GND" H 9700 11580 30  0001 C CNN
F 2 "" H 9700 11650 60  0001 C CNN
F 3 "" H 9700 11650 60  0001 C CNN
	1    9700 11650
	1    0    0    -1  
$EndComp
$Comp
L C-HRZ C13
U 1 1 519FDF37
P 8400 10500
F 0 "C13" H 8399 10675 50  0000 C CNN
F 1 "150n" H 8399 10325 50  0000 C CNN
F 2 "" H 8400 10500 60  0001 C CNN
F 3 "" H 8400 10500 60  0001 C CNN
F 4 "V" H 8399 10225 40  0001 C CNN "Voltage"
	1    8400 10500
	1    0    0    -1  
$EndComp
$Comp
L GND #PWR059
U 1 1 519FDF3D
P 8650 10550
F 0 "#PWR059" H 8650 10550 30  0001 C CNN
F 1 "GND" H 8650 10480 30  0001 C CNN
F 2 "" H 8650 10550 60  0000 C CNN
F 3 "" H 8650 10550 60  0000 C CNN
	1    8650 10550
	1    0    0    -1  
$EndComp
$Comp
L CONNECTOR-2-SMALL P2
U 1 1 519FEC65
P 10150 1700
F 0 "P2" H 10000 1650 60  0000 C CNN
F 1 "CONNECTOR-2-SMALL" H 9600 1700 40  0001 C CNN
F 2 "~" H 10150 1700 60  0000 C CNN
F 3 "~" H 10150 1700 60  0000 C CNN
	1    10150 1700
	-1   0    0    1   
$EndComp
$Comp
L CONNECTOR-2-SMALL P3
U 1 1 519FEC72
P 10150 1950
F 0 "P3" H 10000 1900 60  0000 C CNN
F 1 "Analog/Digital Inputs" H 10200 2050 40  0000 C CNN
F 2 "~" H 10150 1950 60  0000 C CNN
F 3 "~" H 10150 1950 60  0000 C CNN
	1    10150 1950
	-1   0    0    1   
$EndComp
$Comp
L CONNECTOR-2-SMALL P4
U 1 1 519FF3B4
P 10250 14500
F 0 "P4" H 10100 14450 60  0000 C CNN
F 1 "CONNECTOR-2-SMALL" H 9700 14500 40  0001 C CNN
F 2 "~" H 10250 14500 60  0000 C CNN
F 3 "~" H 10250 14500 60  0000 C CNN
	1    10250 14500
	-1   0    0    1   
$EndComp
$Comp
L CONNECTOR-2-SMALL P5
U 1 1 519FF869
P 10250 14800
F 0 "P5" H 10100 14750 60  0000 C CNN
F 1 "Opto-Isolated Inputs" H 10250 14900 40  0000 C CNN
F 2 "~" H 10250 14800 60  0000 C CNN
F 3 "~" H 10250 14800 60  0000 C CNN
	1    10250 14800
	-1   0    0    1   
$EndComp
$Comp
L CONNECTOR-2-SMALL P8
U 1 1 519FFF1B
P 5350 14200
F 0 "P8" H 5200 14150 60  0000 C CNN
F 1 "CONNECTOR-2-SMALL" H 4800 14200 40  0001 C CNN
F 2 "~" H 5350 14200 60  0000 C CNN
F 3 "~" H 5350 14200 60  0000 C CNN
	1    5350 14200
	-1   0    0    1   
$EndComp
$Comp
L CONNECTOR-2-SMALL P10
U 1 1 519FFF21
P 5350 16800
F 0 "P10" H 5200 16750 60  0000 C CNN
F 1 "Relay Outputs" H 5350 16900 40  0000 C CNN
F 2 "~" H 5350 16800 60  0000 C CNN
F 3 "~" H 5350 16800 60  0000 C CNN
	1    5350 16800
	-1   0    0    1   
$EndComp
$Comp
L CONNECTOR-2-SMALL P9
U 1 1 51A0057E
P 5350 15500
F 0 "P9" H 5200 15450 60  0000 C CNN
F 1 "CONNECTOR-2-SMALL" H 4800 15500 40  0001 C CNN
F 2 "~" H 5350 15500 60  0000 C CNN
F 3 "~" H 5350 15500 60  0000 C CNN
	1    5350 15500
	-1   0    0    1   
$EndComp
$Comp
L CONNECTOR-2-SMALL P6
U 1 1 51A00A70
P 5650 3800
F 0 "P6" H 5500 3750 60  0000 C CNN
F 1 "CONNECTOR-2-SMALL" H 5100 3800 40  0001 C CNN
F 2 "~" H 5650 3800 60  0000 C CNN
F 3 "~" H 5650 3800 60  0000 C CNN
	1    5650 3800
	-1   0    0    1   
$EndComp
$Comp
L CONNECTOR-2-SMALL P7
U 1 1 51A00A76
P 5650 4100
F 0 "P7" H 5500 4050 60  0000 C CNN
F 1 "Open Collector Outputs" H 5650 4200 40  0000 C CNN
F 2 "~" H 5650 4100 60  0000 C CNN
F 3 "~" H 5650 4100 60  0000 C CNN
	1    5650 4100
	-1   0    0    1   
$EndComp
$Comp
L +12V #PWR060
U 1 1 51A1D270
P 2100 1450
F 0 "#PWR060" H 2100 1400 20  0001 C CNN
F 1 "+12V" H 2100 1550 30  0000 C CNN
F 2 "~" H 2100 1450 60  0000 C CNN
F 3 "~" H 2100 1450 60  0000 C CNN
	1    2100 1450
	1    0    0    -1  
$EndComp
$Comp
L RELAY_SPDT K1
U 1 1 51A1EE17
P 4250 14000
F 0 "K1" H 4050 14650 70  0000 C CNN
F 1 "C93402" V 4100 14200 70  0000 C CNN
F 2 "~" H 4300 13950 60  0000 C CNN
F 3 "~" H 4300 13950 60  0000 C CNN
	1    4250 14000
	1    0    0    -1  
$EndComp
$Comp
L +12V #PWR061
U 1 1 51A1F7B0
P 3650 13500
F 0 "#PWR061" H 3650 13450 20  0001 C CNN
F 1 "+12V" H 3650 13600 30  0000 C CNN
F 2 "~" H 3650 13500 60  0000 C CNN
F 3 "~" H 3650 13500 60  0000 C CNN
	1    3650 13500
	1    0    0    -1  
$EndComp
$Comp
L DIODESCH D17
U 1 1 51A2024E
P 3400 15550
F 0 "D17" H 3400 15450 40  0000 C CNN
F 1 "1N5819" H 3400 15350 40  0000 C CNN
F 2 "~" H 3400 15550 60  0000 C CNN
F 3 "~" H 3400 15550 60  0000 C CNN
	1    3400 15550
	1    0    0    -1  
$EndComp
$Comp
L LED D16
U 1 1 51A20254
P 3650 15200
F 0 "D16" V 3600 15000 40  0000 C CNN
F 1 "Red LED" V 3700 15000 40  0000 C CNN
F 2 "~" H 3650 15200 60  0000 C CNN
F 3 "~" H 3650 15200 60  0000 C CNN
	1    3650 15200
	0    1    1    0   
$EndComp
$Comp
L RELAY_SPDT K2
U 1 1 51A2025A
P 4250 15300
F 0 "K2" H 4050 15950 70  0000 C CNN
F 1 "C93402" V 4100 15500 70  0000 C CNN
F 2 "~" H 4300 15250 60  0000 C CNN
F 3 "~" H 4300 15250 60  0000 C CNN
	1    4250 15300
	1    0    0    -1  
$EndComp
$Comp
L +12V #PWR062
U 1 1 51A20260
P 3650 14800
F 0 "#PWR062" H 3650 14750 20  0001 C CNN
F 1 "+12V" H 3650 14900 30  0000 C CNN
F 2 "~" H 3650 14800 60  0000 C CNN
F 3 "~" H 3650 14800 60  0000 C CNN
	1    3650 14800
	1    0    0    -1  
$EndComp
$Comp
L DIODESCH D19
U 1 1 51A20273
P 3400 16850
F 0 "D19" H 3400 16750 40  0000 C CNN
F 1 "1N5819" H 3400 16650 40  0000 C CNN
F 2 "~" H 3400 16850 60  0000 C CNN
F 3 "~" H 3400 16850 60  0000 C CNN
	1    3400 16850
	1    0    0    -1  
$EndComp
$Comp
L LED D18
U 1 1 51A20279
P 3650 16500
F 0 "D18" V 3600 16300 40  0000 C CNN
F 1 "Red LED" V 3700 16300 40  0000 C CNN
F 2 "~" H 3650 16500 60  0000 C CNN
F 3 "~" H 3650 16500 60  0000 C CNN
	1    3650 16500
	0    1    1    0   
$EndComp
$Comp
L RELAY_SPDT K3
U 1 1 51A2027F
P 4250 16600
F 0 "K3" H 4050 17250 70  0000 C CNN
F 1 "C93402" V 4100 16800 70  0000 C CNN
F 2 "~" H 4300 16550 60  0000 C CNN
F 3 "~" H 4300 16550 60  0000 C CNN
	1    4250 16600
	1    0    0    -1  
$EndComp
$Comp
L +12V #PWR063
U 1 1 51A20285
P 3650 16100
F 0 "#PWR063" H 3650 16050 20  0001 C CNN
F 1 "+12V" H 3650 16200 30  0000 C CNN
F 2 "~" H 3650 16100 60  0000 C CNN
F 3 "~" H 3650 16100 60  0000 C CNN
	1    3650 16100
	1    0    0    -1  
$EndComp
Connection ~ 1450 1550
Wire Wire Line
	1450 2450 1450 1550
Wire Wire Line
	1650 2450 1450 2450
Connection ~ 1550 1850
Wire Wire Line
	1150 1700 1550 1700
Wire Wire Line
	1150 1550 1650 1550
Connection ~ 2100 1850
Wire Wire Line
	2100 1450 2100 1850
Wire Wire Line
	2050 1550 2100 1550
Wire Wire Line
	1550 1850 1650 1850
Wire Wire Line
	1550 1700 1550 2150
Wire Wire Line
	1550 2150 1650 2150
Connection ~ 2100 2450
Wire Wire Line
	2050 2450 2100 2450
Wire Wire Line
	2100 2150 2050 2150
Wire Wire Line
	2100 2150 2100 2600
Wire Wire Line
	2450 15950 2550 15950
Wire Wire Line
	2450 17250 2550 17250
Wire Wire Line
	2450 14700 2550 14700
Wire Wire Line
	2800 16150 2800 16550
Wire Wire Line
	2800 17850 2800 17450
Wire Wire Line
	2800 15300 2800 14900
Wire Wire Line
	2800 15700 2800 15750
Wire Wire Line
	2800 15700 3800 15700
Wire Wire Line
	2800 14400 3800 14400
Wire Wire Line
	2800 14400 2800 14500
Wire Wire Line
	9600 14400 9600 16100
Wire Wire Line
	7100 14350 7100 16150
Connection ~ 7800 14450
Wire Wire Line
	7800 14650 7800 14450
Wire Wire Line
	7650 14650 7800 14650
Connection ~ 7800 15300
Wire Wire Line
	7800 15500 7800 15300
Wire Wire Line
	7650 15500 7800 15500
Connection ~ 7800 16150
Wire Wire Line
	7800 16350 7800 16150
Wire Wire Line
	7650 16350 7800 16350
Connection ~ 7100 15300
Wire Wire Line
	7100 16150 7250 16150
Connection ~ 7100 14450
Wire Wire Line
	7100 15300 7250 15300
Wire Wire Line
	7250 14450 7100 14450
Wire Wire Line
	7750 15600 7900 15600
Wire Wire Line
	7750 15650 7750 15600
Wire Wire Line
	7750 16450 7750 16500
Wire Wire Line
	7900 16450 7750 16450
Wire Wire Line
	7750 14750 7750 14800
Wire Wire Line
	7900 14750 7750 14750
Wire Wire Line
	7750 16150 7900 16150
Wire Wire Line
	7750 15300 7900 15300
Wire Wire Line
	7750 14450 7900 14450
Wire Wire Line
	9900 16400 8950 16400
Wire Wire Line
	9900 14800 9900 16400
Wire Wire Line
	9750 15550 8950 15550
Wire Wire Line
	9750 14700 9750 15550
Wire Wire Line
	9750 14700 10050 14700
Wire Wire Line
	9500 14700 8950 14700
Wire Wire Line
	9500 14500 9500 14700
Wire Wire Line
	9000 16100 8950 16100
Wire Wire Line
	8950 14400 9000 14400
Wire Wire Line
	9000 15250 8950 15250
Connection ~ 9600 15250
Wire Wire Line
	9600 16100 9500 16100
Connection ~ 9600 14400
Wire Wire Line
	9500 15250 9600 15250
Wire Wire Line
	9500 14400 10050 14400
Connection ~ 3000 1250
Wire Wire Line
	3000 1300 3000 1250
Connection ~ 3000 1850
Wire Wire Line
	3000 1850 3000 1800
Wire Wire Line
	2650 2450 2650 2600
Wire Wire Line
	3150 2450 3150 2600
Wire Wire Line
	3550 2450 3550 2600
Wire Wire Line
	4000 2550 4000 2600
Wire Wire Line
	4100 2550 4000 2550
Wire Wire Line
	5250 2250 5250 2200
Wire Wire Line
	6350 2250 6350 2200
Wire Wire Line
	6850 2250 6850 2200
Wire Wire Line
	4750 2000 4700 2000
Wire Wire Line
	4750 2250 4750 2000
Connection ~ 6350 1700
Wire Wire Line
	6350 1550 6350 1800
Connection ~ 4950 2550
Wire Wire Line
	4950 1850 4950 2550
Wire Wire Line
	4700 1850 4950 1850
Connection ~ 5250 1700
Wire Wire Line
	4600 2550 5100 2550
Connection ~ 6150 1700
Wire Wire Line
	6150 2550 5600 2550
Wire Wire Line
	6150 1700 6150 2550
Wire Wire Line
	6050 1700 6850 1700
Wire Wire Line
	6850 1700 6850 1800
Wire Wire Line
	5250 1800 5250 1700
Wire Wire Line
	3550 2000 3550 2050
Wire Wire Line
	3700 2000 3550 2000
Connection ~ 3150 1850
Connection ~ 2650 1850
Wire Wire Line
	3150 1850 3150 2050
Wire Wire Line
	2050 1850 3700 1850
Wire Wire Line
	2650 1800 2650 2050
Connection ~ 3550 1250
Wire Wire Line
	2650 1250 2650 1300
Connection ~ 3550 1550
Wire Wire Line
	3700 1550 3550 1550
Wire Wire Line
	3550 1700 3700 1700
Wire Wire Line
	3550 1250 3550 1700
Wire Wire Line
	2650 1250 4800 1250
Wire Wire Line
	4800 1250 4800 1550
Wire Wire Line
	4700 1700 5450 1700
Wire Wire Line
	4800 1550 4700 1550
Wire Wire Line
	2150 11650 3150 11650
Wire Wire Line
	3150 11500 1500 11500
Wire Wire Line
	1500 11500 1500 11850
Wire Wire Line
	1500 11650 1550 11650
Wire Wire Line
	2250 11850 2250 11650
Connection ~ 2250 11650
Connection ~ 1500 11650
Wire Wire Line
	1500 12300 1500 12250
Wire Wire Line
	2250 12300 2250 12250
Wire Wire Line
	8400 1850 8400 2050
Wire Wire Line
	8400 1400 8400 1450
Wire Wire Line
	8400 2450 8400 2500
Wire Wire Line
	8300 1950 8650 1950
Connection ~ 8400 1950
Wire Wire Line
	3600 9050 3600 9150
Wire Wire Line
	3600 9150 3700 9150
Wire Wire Line
	4150 9200 4150 9150
Wire Wire Line
	4150 9150 4100 9150
Wire Wire Line
	4400 9050 4400 9150
Wire Wire Line
	4400 9150 4500 9150
Wire Wire Line
	4950 9200 4950 9150
Wire Wire Line
	4950 9150 4900 9150
Connection ~ 1800 9700
Wire Wire Line
	1800 9600 1800 10000
Wire Wire Line
	1500 9700 1900 9700
Wire Wire Line
	1800 10550 1800 10400
Wire Wire Line
	2400 9700 3150 9700
Wire Wire Line
	1500 9700 1500 9850
Wire Wire Line
	1500 10550 1500 10450
Wire Wire Line
	1800 9050 1800 9100
Wire Wire Line
	2950 11350 3150 11350
Wire Wire Line
	3150 11200 3000 11200
Wire Wire Line
	5650 11050 5400 11050
Wire Wire Line
	5400 10900 5600 10900
Wire Wire Line
	9750 1600 9950 1600
Wire Wire Line
	9750 1600 9750 1500
Wire Wire Line
	9250 1700 9950 1700
Wire Wire Line
	9250 1700 9250 1950
Wire Wire Line
	9250 1950 9150 1950
Wire Wire Line
	8400 3200 8400 3400
Wire Wire Line
	8400 2750 8400 2800
Wire Wire Line
	8400 3800 8400 3850
Wire Wire Line
	8300 3300 8650 3300
Connection ~ 8400 3300
Wire Wire Line
	9150 3300 9400 3300
Wire Wire Line
	9400 3300 9400 1850
Wire Wire Line
	9400 1850 9950 1850
Wire Wire Line
	8400 4550 8400 4750
Wire Wire Line
	8400 4100 8400 4150
Wire Wire Line
	8400 5150 8400 5200
Wire Wire Line
	8300 4650 8650 4650
Connection ~ 8400 4650
Wire Wire Line
	9550 4650 9150 4650
Wire Wire Line
	9550 1950 9550 4650
Wire Wire Line
	3950 4950 4050 4950
Wire Wire Line
	3950 5850 4050 5850
Wire Wire Line
	3950 4000 4050 4000
Wire Wire Line
	4300 5150 4300 5500
Wire Wire Line
	4300 6450 4300 6050
Wire Wire Line
	4300 4600 4300 4200
Wire Wire Line
	4300 5600 4300 5650
Wire Wire Line
	4300 4700 4300 4750
Wire Wire Line
	5450 3700 4300 3700
Wire Wire Line
	4300 3700 4300 3800
Wire Wire Line
	5150 4100 5150 4250
Wire Wire Line
	4700 3800 4700 4700
Wire Wire Line
	4700 4700 4300 4700
Wire Wire Line
	5450 4000 4950 4000
Wire Wire Line
	4950 4000 4950 5600
Wire Wire Line
	4950 5600 4300 5600
Wire Wire Line
	3200 3900 3200 4100
Wire Wire Line
	3200 3450 3200 3500
Wire Wire Line
	3200 4500 3200 4550
Wire Wire Line
	3150 4000 3450 4000
Connection ~ 3200 4000
Wire Wire Line
	3200 5750 3200 5950
Wire Wire Line
	3200 5300 3200 5350
Wire Wire Line
	3200 6350 3200 6400
Wire Wire Line
	3150 5850 3450 5850
Connection ~ 3200 5850
Wire Wire Line
	2500 4850 2500 5050
Wire Wire Line
	2500 4400 2500 4450
Wire Wire Line
	2500 5450 2500 5500
Wire Wire Line
	2450 4950 3450 4950
Connection ~ 2500 4950
Wire Wire Line
	10200 11450 10200 11400
Wire Wire Line
	10200 11400 10300 11400
Wire Wire Line
	8100 12700 8100 12650
Wire Wire Line
	9250 11200 9050 11200
Wire Wire Line
	6900 11450 7150 11450
Wire Wire Line
	6900 11050 7150 11050
Wire Wire Line
	8100 10250 8100 10650
Wire Wire Line
	7150 11250 6400 11250
Wire Wire Line
	6400 11250 6400 11050
Wire Wire Line
	6400 11050 6500 11050
Wire Wire Line
	6500 11450 6400 11450
Wire Wire Line
	6400 11450 6400 11650
Wire Wire Line
	6400 11650 7150 11650
Wire Wire Line
	9250 11650 9250 11600
Wire Wire Line
	10300 11800 9050 11800
Wire Wire Line
	5400 11800 6400 11800
Wire Wire Line
	5400 11950 7150 11950
Wire Wire Line
	7150 12100 6400 12100
Wire Wire Line
	6400 12100 6400 11800
Wire Wire Line
	9050 11950 10200 11950
Wire Wire Line
	10200 11950 10200 12000
Wire Wire Line
	10200 12000 10300 12000
Wire Wire Line
	1900 17250 1950 17250
Wire Wire Line
	1900 15950 1950 15950
Wire Wire Line
	2500 15300 2500 15250
Wire Wire Line
	2500 14750 2500 14700
Connection ~ 2500 14700
Wire Wire Line
	2500 17850 2500 17800
Wire Wire Line
	2500 16500 2500 16550
Wire Wire Line
	2500 17300 2500 17250
Connection ~ 2500 17250
Wire Wire Line
	2500 16000 2500 15950
Connection ~ 2500 15950
Wire Wire Line
	2800 17000 3800 17000
Wire Wire Line
	2800 17000 2800 17050
Wire Wire Line
	4000 4600 4000 4550
Wire Wire Line
	4000 5550 4000 5500
Wire Wire Line
	4000 6450 4000 6400
Wire Wire Line
	4000 4050 4000 4000
Connection ~ 4000 4000
Wire Wire Line
	4000 5000 4000 4950
Connection ~ 4000 4950
Wire Wire Line
	4000 5900 4000 5850
Connection ~ 4000 5850
Wire Wire Line
	9700 11200 9700 11050
Wire Wire Line
	9700 11050 9050 11050
Wire Wire Line
	9700 11650 9700 11600
Wire Wire Line
	8650 10550 8650 10500
Wire Wire Line
	8650 10500 8600 10500
Wire Wire Line
	8200 10500 8100 10500
Connection ~ 8100 10500
Wire Wire Line
	9950 1950 9550 1950
Wire Wire Line
	10050 14500 9500 14500
Wire Wire Line
	10050 14800 9900 14800
Wire Wire Line
	5450 3800 4700 3800
Wire Wire Line
	5450 4100 5150 4100
Connection ~ 2100 1550
Wire Wire Line
	4700 13750 4850 13750
Wire Wire Line
	4850 13750 4850 14250
Wire Wire Line
	4700 14250 5000 14250
Wire Wire Line
	4700 14100 5150 14100
Wire Wire Line
	5000 14100 5000 13600
Wire Wire Line
	5000 13600 4700 13600
Wire Wire Line
	3600 14250 3800 14250
Wire Wire Line
	3650 14250 3650 14100
Wire Wire Line
	3650 13500 3650 13700
Wire Wire Line
	3150 14400 3150 14250
Wire Wire Line
	3150 14250 3200 14250
Connection ~ 3650 14250
Wire Wire Line
	4700 15050 4850 15050
Wire Wire Line
	4850 15050 4850 15550
Wire Wire Line
	4700 15550 5000 15550
Wire Wire Line
	4700 15400 5150 15400
Wire Wire Line
	5000 15400 5000 14900
Wire Wire Line
	5000 14900 4700 14900
Wire Wire Line
	3600 15550 3800 15550
Wire Wire Line
	3650 15550 3650 15400
Wire Wire Line
	3650 14800 3650 15000
Wire Wire Line
	3150 15700 3150 15550
Wire Wire Line
	3150 15550 3200 15550
Connection ~ 3650 15550
Wire Wire Line
	4700 16350 4850 16350
Wire Wire Line
	4850 16350 4850 16850
Wire Wire Line
	4700 16850 5000 16850
Wire Wire Line
	4700 16700 5150 16700
Wire Wire Line
	5000 16700 5000 16200
Wire Wire Line
	5000 16200 4700 16200
Wire Wire Line
	3600 16850 3800 16850
Wire Wire Line
	3650 16850 3650 16700
Wire Wire Line
	3650 16100 3650 16300
Wire Wire Line
	3150 17000 3150 16850
Wire Wire Line
	3150 16850 3200 16850
Connection ~ 3650 16850
Connection ~ 3150 14400
Connection ~ 3150 15700
Connection ~ 3150 17000
Connection ~ 5000 14100
Wire Wire Line
	5150 14200 5000 14200
Wire Wire Line
	5000 14200 5000 14250
Connection ~ 4850 14250
Connection ~ 5000 15400
Wire Wire Line
	5150 15500 5000 15500
Wire Wire Line
	5000 15500 5000 15550
Connection ~ 4850 15550
Connection ~ 5000 16700
Wire Wire Line
	5000 16850 5000 16800
Wire Wire Line
	5000 16800 5150 16800
Connection ~ 4850 16850
Wire Wire Line
	1850 14700 1950 14700
Text GLabel 3100 9850 0    60   Input ~ 0
OInput1
Text GLabel 3100 10000 0    60   Input ~ 0
OInput2
Text GLabel 3100 10150 0    60   Input ~ 0
OInput3
Wire Wire Line
	3100 10000 3150 10000
Wire Wire Line
	3150 9850 3100 9850
Wire Wire Line
	3100 10150 3150 10150
Text GLabel 3050 10750 0    60   Input ~ 0
ADI1
Text GLabel 3050 10900 0    60   Input ~ 0
ADI2
Text GLabel 3050 11050 0    60   Input ~ 0
ADI3
Wire Wire Line
	3050 11050 3150 11050
Wire Wire Line
	3050 10900 3150 10900
Wire Wire Line
	3150 10750 3050 10750
Text GLabel 3050 12100 0    60   Input ~ 0
OCT1
Text GLabel 3050 11950 0    60   Input ~ 0
OCT2
Text GLabel 3050 11800 0    60   Input ~ 0
OCT3
Wire Wire Line
	3050 11800 3150 11800
Wire Wire Line
	3150 11950 3050 11950
Wire Wire Line
	3050 12100 3150 12100
Text GLabel 5550 12400 2    60   Input ~ 0
Relay2
Text GLabel 5550 12550 2    60   Input ~ 0
Relay3
Wire Wire Line
	5550 12550 5400 12550
Wire Wire Line
	5400 12400 5550 12400
Wire Wire Line
	5550 12250 5400 12250
Text GLabel 1850 14700 0    60   Input ~ 0
Relay1
$Sheet
S 10750 4950 1300 750 
U 51AC4C3E
F0 "Page 2" 50
F1 "Page 2.sch" 50
$EndSheet
$EndSCHEMATC
